^D:\GE3A02\個人製作\作品\作品最新\ENGINE\CSVREADER.CPP
/c /ZI /JMC /nologo /W3 /WX- /diagnostics:classic /sdl /Od /Oy- /D _MBCS /Gm- /EHsc /RTC1 /MTd /GS /fp:precise /Zc:wchar_t /Zc:forScope /Zc:inline /Fo"DEBUG\\" /Fd"DEBUG\VC141.PDB" /Gd /TP /analyze- /FC D:\GE3A02\個人製作\作品\作品最新\ENGINE\CSVREADER.CPP
^D:\GE3A02\個人製作\作品\作品最新\ENGINE\INPUT.CPP
/c /ZI /JMC /nologo /W3 /WX- /diagnostics:classic /sdl /Od /Oy- /D _MBCS /Gm- /EHsc /RTC1 /MTd /GS /fp:precise /Zc:wchar_t /Zc:forScope /Zc:inline /Fo"DEBUG\\" /Fd"DEBUG\VC141.PDB" /Gd /TP /analyze- /FC D:\GE3A02\個人製作\作品\作品最新\ENGINE\INPUT.CPP
^D:\GE3A02\個人製作\作品\作品最新\AI.CPP
/c /ZI /JMC /nologo /W3 /WX- /diagnostics:classic /sdl /Od /Oy- /D _MBCS /Gm- /EHsc /RTC1 /MTd /GS /fp:precise /Zc:wchar_t /Zc:forScope /Zc:inline /Fo"DEBUG\\" /Fd"DEBUG\VC141.PDB" /Gd /TP /analyze- /FC D:\GE3A02\個人製作\作品\作品最新\AI.CPP
^D:\GE3A02\個人製作\作品\作品最新\CHARACTERFOOT.CPP
/c /ZI /JMC /nologo /W3 /WX- /diagnostics:classic /sdl /Od /Oy- /D _MBCS /Gm- /EHsc /RTC1 /MTd /GS /fp:precise /Zc:wchar_t /Zc:forScope /Zc:inline /Fo"DEBUG\\" /Fd"DEBUG\VC141.PDB" /Gd /TP /analyze- /FC D:\GE3A02\個人製作\作品\作品最新\CHARACTERFOOT.CPP
^D:\GE3A02\個人製作\作品\作品最新\CHARACTERFOOTL.CPP
/c /ZI /JMC /nologo /W3 /WX- /diagnostics:classic /sdl /Od /Oy- /D _MBCS /Gm- /EHsc /RTC1 /MTd /GS /fp:precise /Zc:wchar_t /Zc:forScope /Zc:inline /Fo"DEBUG\\" /Fd"DEBUG\VC141.PDB" /Gd /TP /analyze- /FC D:\GE3A02\個人製作\作品\作品最新\CHARACTERFOOTL.CPP
^D:\GE3A02\個人製作\作品\作品最新\CHARACTERFOOTR.CPP
/c /ZI /JMC /nologo /W3 /WX- /diagnostics:classic /sdl /Od /Oy- /D _MBCS /Gm- /EHsc /RTC1 /MTd /GS /fp:precise /Zc:wchar_t /Zc:forScope /Zc:inline /Fo"DEBUG\\" /Fd"DEBUG\VC141.PDB" /Gd /TP /analyze- /FC D:\GE3A02\個人製作\作品\作品最新\CHARACTERFOOTR.CPP
^D:\GE3A02\個人製作\作品\作品最新\CLEARSCENE.CPP
/c /ZI /JMC /nologo /W3 /WX- /diagnostics:classic /sdl /Od /Oy- /D _MBCS /Gm- /EHsc /RTC1 /MTd /GS /fp:precise /Zc:wchar_t /Zc:forScope /Zc:inline /Fo"DEBUG\\" /Fd"DEBUG\VC141.PDB" /Gd /TP /analyze- /FC D:\GE3A02\個人製作\作品\作品最新\CLEARSCENE.CPP
^D:\GE3A02\個人製作\作品\作品最新\CRYSTALUI.CPP
/c /ZI /JMC /nologo /W3 /WX- /diagnostics:classic /sdl /Od /Oy- /D _MBCS /Gm- /EHsc /RTC1 /MTd /GS /fp:precise /Zc:wchar_t /Zc:forScope /Zc:inline /Fo"DEBUG\\" /Fd"DEBUG\VC141.PDB" /Gd /TP /analyze- /FC D:\GE3A02\個人製作\作品\作品最新\CRYSTALUI.CPP
^D:\GE3A02\個人製作\作品\作品最新\ENGINE\AUDIO.CPP
/c /ZI /JMC /nologo /W3 /WX- /diagnostics:classic /sdl /Od /Oy- /D _MBCS /Gm- /EHsc /RTC1 /MTd /GS /fp:precise /Zc:wchar_t /Zc:forScope /Zc:inline /Fo"DEBUG\\" /Fd"DEBUG\VC141.PDB" /Gd /TP /analyze- /FC D:\GE3A02\個人製作\作品\作品最新\ENGINE\AUDIO.CPP
^D:\GE3A02\個人製作\作品\作品最新\ENGINE\BOXCOLLIDER.CPP
/c /ZI /JMC /nologo /W3 /WX- /diagnostics:classic /sdl /Od /Oy- /D _MBCS /Gm- /EHsc /RTC1 /MTd /GS /fp:precise /Zc:wchar_t /Zc:forScope /Zc:inline /Fo"DEBUG\\" /Fd"DEBUG\VC141.PDB" /Gd /TP /analyze- /FC D:\GE3A02\個人製作\作品\作品最新\ENGINE\BOXCOLLIDER.CPP
^D:\GE3A02\個人製作\作品\作品最新\ENGINE\COLLIDER.CPP
/c /ZI /JMC /nologo /W3 /WX- /diagnostics:classic /sdl /Od /Oy- /D _MBCS /Gm- /EHsc /RTC1 /MTd /GS /fp:precise /Zc:wchar_t /Zc:forScope /Zc:inline /Fo"DEBUG\\" /Fd"DEBUG\VC141.PDB" /Gd /TP /analyze- /FC D:\GE3A02\個人製作\作品\作品最新\ENGINE\COLLIDER.CPP
^D:\GE3A02\個人製作\作品\作品最新\ENGINE\DIRECT3D.CPP
/c /ZI /JMC /nologo /W3 /WX- /diagnostics:classic /sdl /Od /Oy- /D _MBCS /Gm- /EHsc /RTC1 /MTd /GS /fp:precise /Zc:wchar_t /Zc:forScope /Zc:inline /Fo"DEBUG\\" /Fd"DEBUG\VC141.PDB" /Gd /TP /analyze- /FC D:\GE3A02\個人製作\作品\作品最新\ENGINE\DIRECT3D.CPP
^D:\GE3A02\個人製作\作品\作品最新\ENGINE\IGAMEOBJECT.CPP
/c /ZI /JMC /nologo /W3 /WX- /diagnostics:classic /sdl /Od /Oy- /D _MBCS /Gm- /EHsc /RTC1 /MTd /GS /fp:precise /Zc:wchar_t /Zc:forScope /Zc:inline /Fo"DEBUG\\" /Fd"DEBUG\VC141.PDB" /Gd /TP /analyze- /FC D:\GE3A02\個人製作\作品\作品最新\ENGINE\IGAMEOBJECT.CPP
^D:\GE3A02\個人製作\作品\作品最新\ENGINE\IMAGE.CPP
/c /ZI /JMC /nologo /W3 /WX- /diagnostics:classic /sdl /Od /Oy- /D _MBCS /Gm- /EHsc /RTC1 /MTd /GS /fp:precise /Zc:wchar_t /Zc:forScope /Zc:inline /Fo"DEBUG\\" /Fd"DEBUG\VC141.PDB" /Gd /TP /analyze- /FC D:\GE3A02\個人製作\作品\作品最新\ENGINE\IMAGE.CPP
^D:\GE3A02\個人製作\作品\作品最新\ENGINE\MODEL.CPP
/c /ZI /JMC /nologo /W3 /WX- /diagnostics:classic /sdl /Od /Oy- /D _MBCS /Gm- /EHsc /RTC1 /MTd /GS /fp:precise /Zc:wchar_t /Zc:forScope /Zc:inline /Fo"DEBUG\\" /Fd"DEBUG\VC141.PDB" /Gd /TP /analyze- /FC D:\GE3A02\個人製作\作品\作品最新\ENGINE\MODEL.CPP
^D:\GE3A02\個人製作\作品\作品最新\ENGINE\QUAD.CPP
/c /ZI /JMC /nologo /W3 /WX- /diagnostics:classic /sdl /Od /Oy- /D _MBCS /Gm- /EHsc /RTC1 /MTd /GS /fp:precise /Zc:wchar_t /Zc:forScope /Zc:inline /Fo"DEBUG\\" /Fd"DEBUG\VC141.PDB" /Gd /TP /analyze- /FC D:\GE3A02\個人製作\作品\作品最新\ENGINE\QUAD.CPP
^D:\GE3A02\個人製作\作品\作品最新\ENGINE\ROOTJOB.CPP
/c /ZI /JMC /nologo /W3 /WX- /diagnostics:classic /sdl /Od /Oy- /D _MBCS /Gm- /EHsc /RTC1 /MTd /GS /fp:precise /Zc:wchar_t /Zc:forScope /Zc:inline /Fo"DEBUG\\" /Fd"DEBUG\VC141.PDB" /Gd /TP /analyze- /FC D:\GE3A02\個人製作\作品\作品最新\ENGINE\ROOTJOB.CPP
^D:\GE3A02\個人製作\作品\作品最新\ENGINE\SCENEMANAGER.CPP
/c /ZI /JMC /nologo /W3 /WX- /diagnostics:classic /sdl /Od /Oy- /D _MBCS /Gm- /EHsc /RTC1 /MTd /GS /fp:precise /Zc:wchar_t /Zc:forScope /Zc:inline /Fo"DEBUG\\" /Fd"DEBUG\VC141.PDB" /Gd /TP /analyze- /FC D:\GE3A02\個人製作\作品\作品最新\ENGINE\SCENEMANAGER.CPP
^D:\GE3A02\個人製作\作品\作品最新\ENGINE\SPHERECOLLIDER.CPP
/c /ZI /JMC /nologo /W3 /WX- /diagnostics:classic /sdl /Od /Oy- /D _MBCS /Gm- /EHsc /RTC1 /MTd /GS /fp:precise /Zc:wchar_t /Zc:forScope /Zc:inline /Fo"DEBUG\\" /Fd"DEBUG\VC141.PDB" /Gd /TP /analyze- /FC D:\GE3A02\個人製作\作品\作品最新\ENGINE\SPHERECOLLIDER.CPP
^D:\GE3A02\個人製作\作品\作品最新\ENGINE\SPRITE.CPP
/c /ZI /JMC /nologo /W3 /WX- /diagnostics:classic /sdl /Od /Oy- /D _MBCS /Gm- /EHsc /RTC1 /MTd /GS /fp:precise /Zc:wchar_t /Zc:forScope /Zc:inline /Fo"DEBUG\\" /Fd"DEBUG\VC141.PDB" /Gd /TP /analyze- /FC D:\GE3A02\個人製作\作品\作品最新\ENGINE\SPRITE.CPP
^D:\GE3A02\個人製作\作品\作品最新\FLOOR.CPP
/c /ZI /JMC /nologo /W3 /WX- /diagnostics:classic /sdl /Od /Oy- /D _MBCS /Gm- /EHsc /RTC1 /MTd /GS /fp:precise /Zc:wchar_t /Zc:forScope /Zc:inline /Fo"DEBUG\\" /Fd"DEBUG\VC141.PDB" /Gd /TP /analyze- /FC D:\GE3A02\個人製作\作品\作品最新\FLOOR.CPP
^D:\GE3A02\個人製作\作品\作品最新\GAMEOVERSCENE.CPP
/c /ZI /JMC /nologo /W3 /WX- /diagnostics:classic /sdl /Od /Oy- /D _MBCS /Gm- /EHsc /RTC1 /MTd /GS /fp:precise /Zc:wchar_t /Zc:forScope /Zc:inline /Fo"DEBUG\\" /Fd"DEBUG\VC141.PDB" /Gd /TP /analyze- /FC D:\GE3A02\個人製作\作品\作品最新\GAMEOVERSCENE.CPP
^D:\GE3A02\個人製作\作品\作品最新\TITLESCENE.CPP
/c /ZI /JMC /nologo /W3 /WX- /diagnostics:classic /sdl /Od /Oy- /D _MBCS /Gm- /EHsc /RTC1 /MTd /GS /fp:precise /Zc:wchar_t /Zc:forScope /Zc:inline /Fo"DEBUG\\" /Fd"DEBUG\VC141.PDB" /Gd /TP /analyze- /FC D:\GE3A02\個人製作\作品\作品最新\TITLESCENE.CPP
^D:\GE3A02\個人製作\作品\作品最新\ARROW.CPP
/c /ZI /JMC /nologo /W3 /WX- /diagnostics:classic /sdl /Od /Oy- /D _MBCS /Gm- /EHsc /RTC1 /MTd /GS /fp:precise /Zc:wchar_t /Zc:forScope /Zc:inline /Fo"DEBUG\\" /Fd"DEBUG\VC141.PDB" /Gd /TP /analyze- /FC D:\GE3A02\個人製作\作品\作品最新\ARROW.CPP
^D:\GE3A02\個人製作\作品\作品最新\CAMERATARGET.CPP
/c /ZI /JMC /nologo /W3 /WX- /diagnostics:classic /sdl /Od /Oy- /D _MBCS /Gm- /EHsc /RTC1 /MTd /GS /fp:precise /Zc:wchar_t /Zc:forScope /Zc:inline /Fo"DEBUG\\" /Fd"DEBUG\VC141.PDB" /Gd /TP /analyze- /FC D:\GE3A02\個人製作\作品\作品最新\CAMERATARGET.CPP
^D:\GE3A02\個人製作\作品\作品最新\CHARACTER.CPP
/c /ZI /JMC /nologo /W3 /WX- /diagnostics:classic /sdl /Od /Oy- /D _MBCS /Gm- /EHsc /RTC1 /MTd /GS /fp:precise /Zc:wchar_t /Zc:forScope /Zc:inline /Fo"DEBUG\\" /Fd"DEBUG\VC141.PDB" /Gd /TP /analyze- /FC D:\GE3A02\個人製作\作品\作品最新\CHARACTER.CPP
^D:\GE3A02\個人製作\作品\作品最新\CHARACTERAI.CPP
/c /ZI /JMC /nologo /W3 /WX- /diagnostics:classic /sdl /Od /Oy- /D _MBCS /Gm- /EHsc /RTC1 /MTd /GS /fp:precise /Zc:wchar_t /Zc:forScope /Zc:inline /Fo"DEBUG\\" /Fd"DEBUG\VC141.PDB" /Gd /TP /analyze- /FC D:\GE3A02\個人製作\作品\作品最新\CHARACTERAI.CPP
^D:\GE3A02\個人製作\作品\作品最新\CRYSTAL.CPP
/c /ZI /JMC /nologo /W3 /WX- /diagnostics:classic /sdl /Od /Oy- /D _MBCS /Gm- /EHsc /RTC1 /MTd /GS /fp:precise /Zc:wchar_t /Zc:forScope /Zc:inline /Fo"DEBUG\\" /Fd"DEBUG\VC141.PDB" /Gd /TP /analyze- /FC D:\GE3A02\個人製作\作品\作品最新\CRYSTAL.CPP
^D:\GE3A02\個人製作\作品\作品最新\ENEMY.CPP
/c /ZI /JMC /nologo /W3 /WX- /diagnostics:classic /sdl /Od /Oy- /D _MBCS /Gm- /EHsc /RTC1 /MTd /GS /fp:precise /Zc:wchar_t /Zc:forScope /Zc:inline /Fo"DEBUG\\" /Fd"DEBUG\VC141.PDB" /Gd /TP /analyze- /FC D:\GE3A02\個人製作\作品\作品最新\ENEMY.CPP
^D:\GE3A02\個人製作\作品\作品最新\ENGINE\CAMERA.CPP
/c /ZI /JMC /nologo /W3 /WX- /diagnostics:classic /sdl /Od /Oy- /D _MBCS /Gm- /EHsc /RTC1 /MTd /GS /fp:precise /Zc:wchar_t /Zc:forScope /Zc:inline /Fo"DEBUG\\" /Fd"DEBUG\VC141.PDB" /Gd /TP /analyze- /FC D:\GE3A02\個人製作\作品\作品最新\ENGINE\CAMERA.CPP
^D:\GE3A02\個人製作\作品\作品最新\ENGINE\FBX.CPP
/c /ZI /JMC /nologo /W3 /WX- /diagnostics:classic /sdl /Od /Oy- /D _MBCS /Gm- /EHsc /RTC1 /MTd /GS /fp:precise /Zc:wchar_t /Zc:forScope /Zc:inline /Fo"DEBUG\\" /Fd"DEBUG\VC141.PDB" /Gd /TP /analyze- /FC D:\GE3A02\個人製作\作品\作品最新\ENGINE\FBX.CPP
^D:\GE3A02\個人製作\作品\作品最新\ENGINE\WINMAIN.CPP
/c /ZI /JMC /nologo /W3 /WX- /diagnostics:classic /sdl /Od /Oy- /D _MBCS /Gm- /EHsc /RTC1 /MTd /GS /fp:precise /Zc:wchar_t /Zc:forScope /Zc:inline /Fo"DEBUG\\" /Fd"DEBUG\VC141.PDB" /Gd /TP /analyze- /FC D:\GE3A02\個人製作\作品\作品最新\ENGINE\WINMAIN.CPP
^D:\GE3A02\個人製作\作品\作品最新\NAVIGATIONAI.CPP
/c /ZI /JMC /nologo /W3 /WX- /diagnostics:classic /sdl /Od /Oy- /D _MBCS /Gm- /EHsc /RTC1 /MTd /GS /fp:precise /Zc:wchar_t /Zc:forScope /Zc:inline /Fo"DEBUG\\" /Fd"DEBUG\VC141.PDB" /Gd /TP /analyze- /FC D:\GE3A02\個人製作\作品\作品最新\NAVIGATIONAI.CPP
^D:\GE3A02\個人製作\作品\作品最新\PLAYSCENE.CPP
/c /ZI /JMC /nologo /W3 /WX- /diagnostics:classic /sdl /Od /Oy- /D _MBCS /Gm- /EHsc /RTC1 /MTd /GS /fp:precise /Zc:wchar_t /Zc:forScope /Zc:inline /Fo"DEBUG\\" /Fd"DEBUG\VC141.PDB" /Gd /TP /analyze- /FC D:\GE3A02\個人製作\作品\作品最新\PLAYSCENE.CPP
^D:\GE3A02\個人製作\作品\作品最新\PLAYER.CPP
/c /ZI /JMC /nologo /W3 /WX- /diagnostics:classic /sdl /Od /Oy- /D _MBCS /Gm- /EHsc /RTC1 /MTd /GS /fp:precise /Zc:wchar_t /Zc:forScope /Zc:inline /Fo"DEBUG\\" /Fd"DEBUG\VC141.PDB" /Gd /TP /analyze- /FC D:\GE3A02\個人製作\作品\作品最新\PLAYER.CPP
^D:\GE3A02\個人製作\作品\作品最新\STAGE.CPP
/c /ZI /JMC /nologo /W3 /WX- /diagnostics:classic /sdl /Od /Oy- /D _MBCS /Gm- /EHsc /RTC1 /MTd /GS /fp:precise /Zc:wchar_t /Zc:forScope /Zc:inline /Fo"DEBUG\\" /Fd"DEBUG\VC141.PDB" /Gd /TP /analyze- /FC D:\GE3A02\個人製作\作品\作品最新\STAGE.CPP
^D:\GE3A02\個人製作\作品\作品最新\WALL.CPP
/c /ZI /JMC /nologo /W3 /WX- /diagnostics:classic /sdl /Od /Oy- /D _MBCS /Gm- /EHsc /RTC1 /MTd /GS /fp:precise /Zc:wchar_t /Zc:forScope /Zc:inline /Fo"DEBUG\\" /Fd"DEBUG\VC141.PDB" /Gd /TP /analyze- /FC D:\GE3A02\個人製作\作品\作品最新\WALL.CPP
^D:\GE3A02\個人製作\作品\作品最新\WATER.CPP
/c /ZI /JMC /nologo /W3 /WX- /diagnostics:classic /sdl /Od /Oy- /D _MBCS /Gm- /EHsc /RTC1 /MTd /GS /fp:precise /Zc:wchar_t /Zc:forScope /Zc:inline /Fo"DEBUG\\" /Fd"DEBUG\VC141.PDB" /Gd /TP /analyze- /FC D:\GE3A02\個人製作\作品\作品最新\WATER.CPP
^D:\GE3A02\個人製作\作品\作品最新 - コピー\ENGINE\CSVREADER.CPP
/c /ZI /JMC /nologo /W3 /WX- /diagnostics:classic /sdl /Od /Oy- /D _MBCS /Gm- /EHsc /RTC1 /MTd /GS /fp:precise /Zc:wchar_t /Zc:forScope /Zc:inline /Fo"DEBUG\\" /Fd"DEBUG\VC141.PDB" /Gd /TP /analyze- /FC D:\GE3A02\個人製作\作品\作品最新 - コピー\ENGINE\CSVREADER.CPP
^D:\GE3A02\個人製作\作品\作品最新 - コピー\ENGINE\INPUT.CPP
/c /ZI /JMC /nologo /W3 /WX- /diagnostics:classic /sdl /Od /Oy- /D _MBCS /Gm- /EHsc /RTC1 /MTd /GS /fp:precise /Zc:wchar_t /Zc:forScope /Zc:inline /Fo"DEBUG\\" /Fd"DEBUG\VC141.PDB" /Gd /TP /analyze- /FC D:\GE3A02\個人製作\作品\作品最新 - コピー\ENGINE\INPUT.CPP
^D:\GE3A02\個人製作\作品\作品最新 - コピー\AI.CPP
/c /ZI /JMC /nologo /W3 /WX- /diagnostics:classic /sdl /Od /Oy- /D _MBCS /Gm- /EHsc /RTC1 /MTd /GS /fp:precise /Zc:wchar_t /Zc:forScope /Zc:inline /Fo"DEBUG\\" /Fd"DEBUG\VC141.PDB" /Gd /TP /analyze- /FC D:\GE3A02\個人製作\作品\作品最新 - コピー\AI.CPP
^D:\GE3A02\個人製作\作品\作品最新 - コピー\ARROW.CPP
/c /ZI /JMC /nologo /W3 /WX- /diagnostics:classic /sdl /Od /Oy- /D _MBCS /Gm- /EHsc /RTC1 /MTd /GS /fp:precise /Zc:wchar_t /Zc:forScope /Zc:inline /Fo"DEBUG\\" /Fd"DEBUG\VC141.PDB" /Gd /TP /analyze- /FC D:\GE3A02\個人製作\作品\作品最新 - コピー\ARROW.CPP
^D:\GE3A02\個人製作\作品\作品最新 - コピー\CAMERATARGET.CPP
/c /ZI /JMC /nologo /W3 /WX- /diagnostics:classic /sdl /Od /Oy- /D _MBCS /Gm- /EHsc /RTC1 /MTd /GS /fp:precise /Zc:wchar_t /Zc:forScope /Zc:inline /Fo"DEBUG\\" /Fd"DEBUG\VC141.PDB" /Gd /TP /analyze- /FC D:\GE3A02\個人製作\作品\作品最新 - コピー\CAMERATARGET.CPP
^D:\GE3A02\個人製作\作品\作品最新 - コピー\CHARACTER.CPP
/c /ZI /JMC /nologo /W3 /WX- /diagnostics:classic /sdl /Od /Oy- /D _MBCS /Gm- /EHsc /RTC1 /MTd /GS /fp:precise /Zc:wchar_t /Zc:forScope /Zc:inline /Fo"DEBUG\\" /Fd"DEBUG\VC141.PDB" /Gd /TP /analyze- /FC D:\GE3A02\個人製作\作品\作品最新 - コピー\CHARACTER.CPP
^D:\GE3A02\個人製作\作品\作品最新 - コピー\CHARACTERAI.CPP
/c /ZI /JMC /nologo /W3 /WX- /diagnostics:classic /sdl /Od /Oy- /D _MBCS /Gm- /EHsc /RTC1 /MTd /GS /fp:precise /Zc:wchar_t /Zc:forScope /Zc:inline /Fo"DEBUG\\" /Fd"DEBUG\VC141.PDB" /Gd /TP /analyze- /FC D:\GE3A02\個人製作\作品\作品最新 - コピー\CHARACTERAI.CPP
^D:\GE3A02\個人製作\作品\作品最新 - コピー\CHARACTERFOOT.CPP
/c /ZI /JMC /nologo /W3 /WX- /diagnostics:classic /sdl /Od /Oy- /D _MBCS /Gm- /EHsc /RTC1 /MTd /GS /fp:precise /Zc:wchar_t /Zc:forScope /Zc:inline /Fo"DEBUG\\" /Fd"DEBUG\VC141.PDB" /Gd /TP /analyze- /FC D:\GE3A02\個人製作\作品\作品最新 - コピー\CHARACTERFOOT.CPP
^D:\GE3A02\個人製作\作品\作品最新 - コピー\CHARACTERFOOTL.CPP
/c /ZI /JMC /nologo /W3 /WX- /diagnostics:classic /sdl /Od /Oy- /D _MBCS /Gm- /EHsc /RTC1 /MTd /GS /fp:precise /Zc:wchar_t /Zc:forScope /Zc:inline /Fo"DEBUG\\" /Fd"DEBUG\VC141.PDB" /Gd /TP /analyze- /FC D:\GE3A02\個人製作\作品\作品最新 - コピー\CHARACTERFOOTL.CPP
^D:\GE3A02\個人製作\作品\作品最新 - コピー\CHARACTERFOOTR.CPP
/c /ZI /JMC /nologo /W3 /WX- /diagnostics:classic /sdl /Od /Oy- /D _MBCS /Gm- /EHsc /RTC1 /MTd /GS /fp:precise /Zc:wchar_t /Zc:forScope /Zc:inline /Fo"DEBUG\\" /Fd"DEBUG\VC141.PDB" /Gd /TP /analyze- /FC D:\GE3A02\個人製作\作品\作品最新 - コピー\CHARACTERFOOTR.CPP
^D:\GE3A02\個人製作\作品\作品最新 - コピー\CLEARSCENE.CPP
/c /ZI /JMC /nologo /W3 /WX- /diagnostics:classic /sdl /Od /Oy- /D _MBCS /Gm- /EHsc /RTC1 /MTd /GS /fp:precise /Zc:wchar_t /Zc:forScope /Zc:inline /Fo"DEBUG\\" /Fd"DEBUG\VC141.PDB" /Gd /TP /analyze- /FC D:\GE3A02\個人製作\作品\作品最新 - コピー\CLEARSCENE.CPP
^D:\GE3A02\個人製作\作品\作品最新 - コピー\CRYSTAL.CPP
/c /ZI /JMC /nologo /W3 /WX- /diagnostics:classic /sdl /Od /Oy- /D _MBCS /Gm- /EHsc /RTC1 /MTd /GS /fp:precise /Zc:wchar_t /Zc:forScope /Zc:inline /Fo"DEBUG\\" /Fd"DEBUG\VC141.PDB" /Gd /TP /analyze- /FC D:\GE3A02\個人製作\作品\作品最新 - コピー\CRYSTAL.CPP
^D:\GE3A02\個人製作\作品\作品最新 - コピー\CRYSTALUI.CPP
/c /ZI /JMC /nologo /W3 /WX- /diagnostics:classic /sdl /Od /Oy- /D _MBCS /Gm- /EHsc /RTC1 /MTd /GS /fp:precise /Zc:wchar_t /Zc:forScope /Zc:inline /Fo"DEBUG\\" /Fd"DEBUG\VC141.PDB" /Gd /TP /analyze- /FC D:\GE3A02\個人製作\作品\作品最新 - コピー\CRYSTALUI.CPP
^D:\GE3A02\個人製作\作品\作品最新 - コピー\ENEMY.CPP
/c /ZI /JMC /nologo /W3 /WX- /diagnostics:classic /sdl /Od /Oy- /D _MBCS /Gm- /EHsc /RTC1 /MTd /GS /fp:precise /Zc:wchar_t /Zc:forScope /Zc:inline /Fo"DEBUG\\" /Fd"DEBUG\VC141.PDB" /Gd /TP /analyze- /FC D:\GE3A02\個人製作\作品\作品最新 - コピー\ENEMY.CPP
^D:\GE3A02\個人製作\作品\作品最新 - コピー\ENGINE\AUDIO.CPP
/c /ZI /JMC /nologo /W3 /WX- /diagnostics:classic /sdl /Od /Oy- /D _MBCS /Gm- /EHsc /RTC1 /MTd /GS /fp:precise /Zc:wchar_t /Zc:forScope /Zc:inline /Fo"DEBUG\\" /Fd"DEBUG\VC141.PDB" /Gd /TP /analyze- /FC D:\GE3A02\個人製作\作品\作品最新 - コピー\ENGINE\AUDIO.CPP
^D:\GE3A02\個人製作\作品\作品最新 - コピー\ENGINE\BOXCOLLIDER.CPP
/c /ZI /JMC /nologo /W3 /WX- /diagnostics:classic /sdl /Od /Oy- /D _MBCS /Gm- /EHsc /RTC1 /MTd /GS /fp:precise /Zc:wchar_t /Zc:forScope /Zc:inline /Fo"DEBUG\\" /Fd"DEBUG\VC141.PDB" /Gd /TP /analyze- /FC D:\GE3A02\個人製作\作品\作品最新 - コピー\ENGINE\BOXCOLLIDER.CPP
^D:\GE3A02\個人製作\作品\作品最新 - コピー\ENGINE\CAMERA.CPP
/c /ZI /JMC /nologo /W3 /WX- /diagnostics:classic /sdl /Od /Oy- /D _MBCS /Gm- /EHsc /RTC1 /MTd /GS /fp:precise /Zc:wchar_t /Zc:forScope /Zc:inline /Fo"DEBUG\\" /Fd"DEBUG\VC141.PDB" /Gd /TP /analyze- /FC D:\GE3A02\個人製作\作品\作品最新 - コピー\ENGINE\CAMERA.CPP
^D:\GE3A02\個人製作\作品\作品最新 - コピー\ENGINE\COLLIDER.CPP
/c /ZI /JMC /nologo /W3 /WX- /diagnostics:classic /sdl /Od /Oy- /D _MBCS /Gm- /EHsc /RTC1 /MTd /GS /fp:precise /Zc:wchar_t /Zc:forScope /Zc:inline /Fo"DEBUG\\" /Fd"DEBUG\VC141.PDB" /Gd /TP /analyze- /FC D:\GE3A02\個人製作\作品\作品最新 - コピー\ENGINE\COLLIDER.CPP
^D:\GE3A02\個人製作\作品\作品最新 - コピー\ENGINE\DIRECT3D.CPP
/c /ZI /JMC /nologo /W3 /WX- /diagnostics:classic /sdl /Od /Oy- /D _MBCS /Gm- /EHsc /RTC1 /MTd /GS /fp:precise /Zc:wchar_t /Zc:forScope /Zc:inline /Fo"DEBUG\\" /Fd"DEBUG\VC141.PDB" /Gd /TP /analyze- /FC D:\GE3A02\個人製作\作品\作品最新 - コピー\ENGINE\DIRECT3D.CPP
^D:\GE3A02\個人製作\作品\作品最新 - コピー\ENGINE\FBX.CPP
/c /ZI /JMC /nologo /W3 /WX- /diagnostics:classic /sdl /Od /Oy- /D _MBCS /Gm- /EHsc /RTC1 /MTd /GS /fp:precise /Zc:wchar_t /Zc:forScope /Zc:inline /Fo"DEBUG\\" /Fd"DEBUG\VC141.PDB" /Gd /TP /analyze- /FC D:\GE3A02\個人製作\作品\作品最新 - コピー\ENGINE\FBX.CPP
^D:\GE3A02\個人製作\作品\作品最新 - コピー\ENGINE\IGAMEOBJECT.CPP
/c /ZI /JMC /nologo /W3 /WX- /diagnostics:classic /sdl /Od /Oy- /D _MBCS /Gm- /EHsc /RTC1 /MTd /GS /fp:precise /Zc:wchar_t /Zc:forScope /Zc:inline /Fo"DEBUG\\" /Fd"DEBUG\VC141.PDB" /Gd /TP /analyze- /FC D:\GE3A02\個人製作\作品\作品最新 - コピー\ENGINE\IGAMEOBJECT.CPP
^D:\GE3A02\個人製作\作品\作品最新 - コピー\ENGINE\IMAGE.CPP
/c /ZI /JMC /nologo /W3 /WX- /diagnostics:classic /sdl /Od /Oy- /D _MBCS /Gm- /EHsc /RTC1 /MTd /GS /fp:precise /Zc:wchar_t /Zc:forScope /Zc:inline /Fo"DEBUG\\" /Fd"DEBUG\VC141.PDB" /Gd /TP /analyze- /FC D:\GE3A02\個人製作\作品\作品最新 - コピー\ENGINE\IMAGE.CPP
^D:\GE3A02\個人製作\作品\作品最新 - コピー\ENGINE\MODEL.CPP
/c /ZI /JMC /nologo /W3 /WX- /diagnostics:classic /sdl /Od /Oy- /D _MBCS /Gm- /EHsc /RTC1 /MTd /GS /fp:precise /Zc:wchar_t /Zc:forScope /Zc:inline /Fo"DEBUG\\" /Fd"DEBUG\VC141.PDB" /Gd /TP /analyze- /FC D:\GE3A02\個人製作\作品\作品最新 - コピー\ENGINE\MODEL.CPP
^D:\GE3A02\個人製作\作品\作品最新 - コピー\ENGINE\QUAD.CPP
/c /ZI /JMC /nologo /W3 /WX- /diagnostics:classic /sdl /Od /Oy- /D _MBCS /Gm- /EHsc /RTC1 /MTd /GS /fp:precise /Zc:wchar_t /Zc:forScope /Zc:inline /Fo"DEBUG\\" /Fd"DEBUG\VC141.PDB" /Gd /TP /analyze- /FC D:\GE3A02\個人製作\作品\作品最新 - コピー\ENGINE\QUAD.CPP
^D:\GE3A02\個人製作\作品\作品最新 - コピー\ENGINE\ROOTJOB.CPP
/c /ZI /JMC /nologo /W3 /WX- /diagnostics:classic /sdl /Od /Oy- /D _MBCS /Gm- /EHsc /RTC1 /MTd /GS /fp:precise /Zc:wchar_t /Zc:forScope /Zc:inline /Fo"DEBUG\\" /Fd"DEBUG\VC141.PDB" /Gd /TP /analyze- /FC D:\GE3A02\個人製作\作品\作品最新 - コピー\ENGINE\ROOTJOB.CPP
^D:\GE3A02\個人製作\作品\作品最新 - コピー\ENGINE\SCENEMANAGER.CPP
/c /ZI /JMC /nologo /W3 /WX- /diagnostics:classic /sdl /Od /Oy- /D _MBCS /Gm- /EHsc /RTC1 /MTd /GS /fp:precise /Zc:wchar_t /Zc:forScope /Zc:inline /Fo"DEBUG\\" /Fd"DEBUG\VC141.PDB" /Gd /TP /analyze- /FC D:\GE3A02\個人製作\作品\作品最新 - コピー\ENGINE\SCENEMANAGER.CPP
^D:\GE3A02\個人製作\作品\作品最新 - コピー\ENGINE\SPHERECOLLIDER.CPP
/c /ZI /JMC /nologo /W3 /WX- /diagnostics:classic /sdl /Od /Oy- /D _MBCS /Gm- /EHsc /RTC1 /MTd /GS /fp:precise /Zc:wchar_t /Zc:forScope /Zc:inline /Fo"DEBUG\\" /Fd"DEBUG\VC141.PDB" /Gd /TP /analyze- /FC D:\GE3A02\個人製作\作品\作品最新 - コピー\ENGINE\SPHERECOLLIDER.CPP
^D:\GE3A02\個人製作\作品\作品最新 - コピー\ENGINE\SPRITE.CPP
/c /ZI /JMC /nologo /W3 /WX- /diagnostics:classic /sdl /Od /Oy- /D _MBCS /Gm- /EHsc /RTC1 /MTd /GS /fp:precise /Zc:wchar_t /Zc:forScope /Zc:inline /Fo"DEBUG\\" /Fd"DEBUG\VC141.PDB" /Gd /TP /analyze- /FC D:\GE3A02\個人製作\作品\作品最新 - コピー\ENGINE\SPRITE.CPP
^D:\GE3A02\個人製作\作品\作品最新 - コピー\ENGINE\WINMAIN.CPP
/c /ZI /JMC /nologo /W3 /WX- /diagnostics:classic /sdl /Od /Oy- /D _MBCS /Gm- /EHsc /RTC1 /MTd /GS /fp:precise /Zc:wchar_t /Zc:forScope /Zc:inline /Fo"DEBUG\\" /Fd"DEBUG\VC141.PDB" /Gd /TP /analyze- /FC D:\GE3A02\個人製作\作品\作品最新 - コピー\ENGINE\WINMAIN.CPP
^D:\GE3A02\個人製作\作品\作品最新 - コピー\FLOOR.CPP
/c /ZI /JMC /nologo /W3 /WX- /diagnostics:classic /sdl /Od /Oy- /D _MBCS /Gm- /EHsc /RTC1 /MTd /GS /fp:precise /Zc:wchar_t /Zc:forScope /Zc:inline /Fo"DEBUG\\" /Fd"DEBUG\VC141.PDB" /Gd /TP /analyze- /FC D:\GE3A02\個人製作\作品\作品最新 - コピー\FLOOR.CPP
^D:\GE3A02\個人製作\作品\作品最新 - コピー\GAMEOVERSCENE.CPP
/c /ZI /JMC /nologo /W3 /WX- /diagnostics:classic /sdl /Od /Oy- /D _MBCS /Gm- /EHsc /RTC1 /MTd /GS /fp:precise /Zc:wchar_t /Zc:forScope /Zc:inline /Fo"DEBUG\\" /Fd"DEBUG\VC141.PDB" /Gd /TP /analyze- /FC D:\GE3A02\個人製作\作品\作品最新 - コピー\GAMEOVERSCENE.CPP
^D:\GE3A02\個人製作\作品\作品最新 - コピー\NAVIGATIONAI.CPP
/c /ZI /JMC /nologo /W3 /WX- /diagnostics:classic /sdl /Od /Oy- /D _MBCS /Gm- /EHsc /RTC1 /MTd /GS /fp:precise /Zc:wchar_t /Zc:forScope /Zc:inline /Fo"DEBUG\\" /Fd"DEBUG\VC141.PDB" /Gd /TP /analyze- /FC D:\GE3A02\個人製作\作品\作品最新 - コピー\NAVIGATIONAI.CPP
^D:\GE3A02\個人製作\作品\作品最新 - コピー\PLAYSCENE.CPP
/c /ZI /JMC /nologo /W3 /WX- /diagnostics:classic /sdl /Od /Oy- /D _MBCS /Gm- /EHsc /RTC1 /MTd /GS /fp:precise /Zc:wchar_t /Zc:forScope /Zc:inline /Fo"DEBUG\\" /Fd"DEBUG\VC141.PDB" /Gd /TP /analyze- /FC D:\GE3A02\個人製作\作品\作品最新 - コピー\PLAYSCENE.CPP
^D:\GE3A02\個人製作\作品\作品最新 - コピー\PLAYER.CPP
/c /ZI /JMC /nologo /W3 /WX- /diagnostics:classic /sdl /Od /Oy- /D _MBCS /Gm- /EHsc /RTC1 /MTd /GS /fp:precise /Zc:wchar_t /Zc:forScope /Zc:inline /Fo"DEBUG\\" /Fd"DEBUG\VC141.PDB" /Gd /TP /analyze- /FC D:\GE3A02\個人製作\作品\作品最新 - コピー\PLAYER.CPP
^D:\GE3A02\個人製作\作品\作品最新 - コピー\STAGE.CPP
/c /ZI /JMC /nologo /W3 /WX- /diagnostics:classic /sdl /Od /Oy- /D _MBCS /Gm- /EHsc /RTC1 /MTd /GS /fp:precise /Zc:wchar_t /Zc:forScope /Zc:inline /Fo"DEBUG\\" /Fd"DEBUG\VC141.PDB" /Gd /TP /analyze- /FC D:\GE3A02\個人製作\作品\作品最新 - コピー\STAGE.CPP
^D:\GE3A02\個人製作\作品\作品最新 - コピー\TITLESCENE.CPP
/c /ZI /JMC /nologo /W3 /WX- /diagnostics:classic /sdl /Od /Oy- /D _MBCS /Gm- /EHsc /RTC1 /MTd /GS /fp:precise /Zc:wchar_t /Zc:forScope /Zc:inline /Fo"DEBUG\\" /Fd"DEBUG\VC141.PDB" /Gd /TP /analyze- /FC D:\GE3A02\個人製作\作品\作品最新 - コピー\TITLESCENE.CPP
^D:\GE3A02\個人製作\作品\作品最新 - コピー\WALL.CPP
/c /ZI /JMC /nologo /W3 /WX- /diagnostics:classic /sdl /Od /Oy- /D _MBCS /Gm- /EHsc /RTC1 /MTd /GS /fp:precise /Zc:wchar_t /Zc:forScope /Zc:inline /Fo"DEBUG\\" /Fd"DEBUG\VC141.PDB" /Gd /TP /analyze- /FC D:\GE3A02\個人製作\作品\作品最新 - コピー\WALL.CPP
^D:\GE3A02\個人製作\作品\作品最新 - コピー\WATER.CPP
/c /ZI /JMC /nologo /W3 /WX- /diagnostics:classic /sdl /Od /Oy- /D _MBCS /Gm- /EHsc /RTC1 /MTd /GS /fp:precise /Zc:wchar_t /Zc:forScope /Zc:inline /Fo"DEBUG\\" /Fd"DEBUG\VC141.PDB" /Gd /TP /analyze- /FC D:\GE3A02\個人製作\作品\作品最新 - コピー\WATER.CPP
