^D:\GE2A02\個人製作\資料\MAZE\DEBUG\MAIN.OBJ
D:\GE2A02\個人製作\資料\MAZE\DEBUG\MAZE.EXE
D:\GE2A02\個人製作\資料\MAZE\DEBUG\MAZE.ILK
D:\GE2A02\個人製作\資料\MAZE\DEBUG\MAZE.PDB
^D:\GE2A02\個人製作\資料\MAZE\STICK\DEBUG\MAIN.OBJ
D:\GE2A02\個人製作\資料\MAZE\STICK\DEBUG\MAZE.EXE
D:\GE2A02\個人製作\資料\MAZE\STICK\DEBUG\MAZE.ILK
D:\GE2A02\個人製作\資料\MAZE\STICK\DEBUG\MAZE.PDB
