^C:\USERS\180210\DESKTOP\作品最新\AI.CPP
/c /Zi /nologo /W3 /WX- /diagnostics:classic /sdl /O2 /Oi /Oy- /GL /D _MBCS /Gm- /EHsc /MT /GS /Gy /fp:precise /Zc:wchar_t /Zc:forScope /Zc:inline /Fo"RELEASE\\" /Fd"RELEASE\VC141.PDB" /Gd /TP /analyze- /FC C:\USERS\180210\DESKTOP\作品最新\AI.CPP
^C:\USERS\180210\DESKTOP\作品最新\ARROW.CPP
/c /Zi /nologo /W3 /WX- /diagnostics:classic /sdl /O2 /Oi /Oy- /GL /D _MBCS /Gm- /EHsc /MT /GS /Gy /fp:precise /Zc:wchar_t /Zc:forScope /Zc:inline /Fo"RELEASE\\" /Fd"RELEASE\VC141.PDB" /Gd /TP /analyze- /FC C:\USERS\180210\DESKTOP\作品最新\ARROW.CPP
^C:\USERS\180210\DESKTOP\作品最新\CAMERATARGET.CPP
/c /Zi /nologo /W3 /WX- /diagnostics:classic /sdl /O2 /Oi /Oy- /GL /D _MBCS /Gm- /EHsc /MT /GS /Gy /fp:precise /Zc:wchar_t /Zc:forScope /Zc:inline /Fo"RELEASE\\" /Fd"RELEASE\VC141.PDB" /Gd /TP /analyze- /FC C:\USERS\180210\DESKTOP\作品最新\CAMERATARGET.CPP
^C:\USERS\180210\DESKTOP\作品最新\CHARACTER.CPP
/c /Zi /nologo /W3 /WX- /diagnostics:classic /sdl /O2 /Oi /Oy- /GL /D _MBCS /Gm- /EHsc /MT /GS /Gy /fp:precise /Zc:wchar_t /Zc:forScope /Zc:inline /Fo"RELEASE\\" /Fd"RELEASE\VC141.PDB" /Gd /TP /analyze- /FC C:\USERS\180210\DESKTOP\作品最新\CHARACTER.CPP
^C:\USERS\180210\DESKTOP\作品最新\CHARACTERAI.CPP
/c /Zi /nologo /W3 /WX- /diagnostics:classic /sdl /O2 /Oi /Oy- /GL /D _MBCS /Gm- /EHsc /MT /GS /Gy /fp:precise /Zc:wchar_t /Zc:forScope /Zc:inline /Fo"RELEASE\\" /Fd"RELEASE\VC141.PDB" /Gd /TP /analyze- /FC C:\USERS\180210\DESKTOP\作品最新\CHARACTERAI.CPP
^C:\USERS\180210\DESKTOP\作品最新\CHARACTERFOOT.CPP
/c /Zi /nologo /W3 /WX- /diagnostics:classic /sdl /O2 /Oi /Oy- /GL /D _MBCS /Gm- /EHsc /MT /GS /Gy /fp:precise /Zc:wchar_t /Zc:forScope /Zc:inline /Fo"RELEASE\\" /Fd"RELEASE\VC141.PDB" /Gd /TP /analyze- /FC C:\USERS\180210\DESKTOP\作品最新\CHARACTERFOOT.CPP
^C:\USERS\180210\DESKTOP\作品最新\CHARACTERFOOTL.CPP
/c /Zi /nologo /W3 /WX- /diagnostics:classic /sdl /O2 /Oi /Oy- /GL /D _MBCS /Gm- /EHsc /MT /GS /Gy /fp:precise /Zc:wchar_t /Zc:forScope /Zc:inline /Fo"RELEASE\\" /Fd"RELEASE\VC141.PDB" /Gd /TP /analyze- /FC C:\USERS\180210\DESKTOP\作品最新\CHARACTERFOOTL.CPP
^C:\USERS\180210\DESKTOP\作品最新\CHARACTERFOOTR.CPP
/c /Zi /nologo /W3 /WX- /diagnostics:classic /sdl /O2 /Oi /Oy- /GL /D _MBCS /Gm- /EHsc /MT /GS /Gy /fp:precise /Zc:wchar_t /Zc:forScope /Zc:inline /Fo"RELEASE\\" /Fd"RELEASE\VC141.PDB" /Gd /TP /analyze- /FC C:\USERS\180210\DESKTOP\作品最新\CHARACTERFOOTR.CPP
^C:\USERS\180210\DESKTOP\作品最新\CLEARSCENE.CPP
/c /Zi /nologo /W3 /WX- /diagnostics:classic /sdl /O2 /Oi /Oy- /GL /D _MBCS /Gm- /EHsc /MT /GS /Gy /fp:precise /Zc:wchar_t /Zc:forScope /Zc:inline /Fo"RELEASE\\" /Fd"RELEASE\VC141.PDB" /Gd /TP /analyze- /FC C:\USERS\180210\DESKTOP\作品最新\CLEARSCENE.CPP
^C:\USERS\180210\DESKTOP\作品最新\CRYSTAL.CPP
/c /Zi /nologo /W3 /WX- /diagnostics:classic /sdl /O2 /Oi /Oy- /GL /D _MBCS /Gm- /EHsc /MT /GS /Gy /fp:precise /Zc:wchar_t /Zc:forScope /Zc:inline /Fo"RELEASE\\" /Fd"RELEASE\VC141.PDB" /Gd /TP /analyze- /FC C:\USERS\180210\DESKTOP\作品最新\CRYSTAL.CPP
^C:\USERS\180210\DESKTOP\作品最新\CRYSTALUI.CPP
/c /Zi /nologo /W3 /WX- /diagnostics:classic /sdl /O2 /Oi /Oy- /GL /D _MBCS /Gm- /EHsc /MT /GS /Gy /fp:precise /Zc:wchar_t /Zc:forScope /Zc:inline /Fo"RELEASE\\" /Fd"RELEASE\VC141.PDB" /Gd /TP /analyze- /FC C:\USERS\180210\DESKTOP\作品最新\CRYSTALUI.CPP
^C:\USERS\180210\DESKTOP\作品最新\ENEMY.CPP
/c /Zi /nologo /W3 /WX- /diagnostics:classic /sdl /O2 /Oi /Oy- /GL /D _MBCS /Gm- /EHsc /MT /GS /Gy /fp:precise /Zc:wchar_t /Zc:forScope /Zc:inline /Fo"RELEASE\\" /Fd"RELEASE\VC141.PDB" /Gd /TP /analyze- /FC C:\USERS\180210\DESKTOP\作品最新\ENEMY.CPP
^C:\USERS\180210\DESKTOP\作品最新\ENGINE\AUDIO.CPP
/c /Zi /nologo /W3 /WX- /diagnostics:classic /sdl /O2 /Oi /Oy- /GL /D _MBCS /Gm- /EHsc /MT /GS /Gy /fp:precise /Zc:wchar_t /Zc:forScope /Zc:inline /Fo"RELEASE\\" /Fd"RELEASE\VC141.PDB" /Gd /TP /analyze- /FC C:\USERS\180210\DESKTOP\作品最新\ENGINE\AUDIO.CPP
^C:\USERS\180210\DESKTOP\作品最新\ENGINE\BOXCOLLIDER.CPP
/c /Zi /nologo /W3 /WX- /diagnostics:classic /sdl /O2 /Oi /Oy- /GL /D _MBCS /Gm- /EHsc /MT /GS /Gy /fp:precise /Zc:wchar_t /Zc:forScope /Zc:inline /Fo"RELEASE\\" /Fd"RELEASE\VC141.PDB" /Gd /TP /analyze- /FC C:\USERS\180210\DESKTOP\作品最新\ENGINE\BOXCOLLIDER.CPP
^C:\USERS\180210\DESKTOP\作品最新\ENGINE\CAMERA.CPP
/c /Zi /nologo /W3 /WX- /diagnostics:classic /sdl /O2 /Oi /Oy- /GL /D _MBCS /Gm- /EHsc /MT /GS /Gy /fp:precise /Zc:wchar_t /Zc:forScope /Zc:inline /Fo"RELEASE\\" /Fd"RELEASE\VC141.PDB" /Gd /TP /analyze- /FC C:\USERS\180210\DESKTOP\作品最新\ENGINE\CAMERA.CPP
^C:\USERS\180210\DESKTOP\作品最新\ENGINE\COLLIDER.CPP
/c /Zi /nologo /W3 /WX- /diagnostics:classic /sdl /O2 /Oi /Oy- /GL /D _MBCS /Gm- /EHsc /MT /GS /Gy /fp:precise /Zc:wchar_t /Zc:forScope /Zc:inline /Fo"RELEASE\\" /Fd"RELEASE\VC141.PDB" /Gd /TP /analyze- /FC C:\USERS\180210\DESKTOP\作品最新\ENGINE\COLLIDER.CPP
^C:\USERS\180210\DESKTOP\作品最新\ENGINE\CSVREADER.CPP
/c /Zi /nologo /W3 /WX- /diagnostics:classic /sdl /O2 /Oi /Oy- /GL /D _MBCS /Gm- /EHsc /MT /GS /Gy /fp:precise /Zc:wchar_t /Zc:forScope /Zc:inline /Fo"RELEASE\\" /Fd"RELEASE\VC141.PDB" /Gd /TP /analyze- /FC C:\USERS\180210\DESKTOP\作品最新\ENGINE\CSVREADER.CPP
^C:\USERS\180210\DESKTOP\作品最新\ENGINE\DIRECT3D.CPP
/c /Zi /nologo /W3 /WX- /diagnostics:classic /sdl /O2 /Oi /Oy- /GL /D _MBCS /Gm- /EHsc /MT /GS /Gy /fp:precise /Zc:wchar_t /Zc:forScope /Zc:inline /Fo"RELEASE\\" /Fd"RELEASE\VC141.PDB" /Gd /TP /analyze- /FC C:\USERS\180210\DESKTOP\作品最新\ENGINE\DIRECT3D.CPP
^C:\USERS\180210\DESKTOP\作品最新\ENGINE\FBX.CPP
/c /Zi /nologo /W3 /WX- /diagnostics:classic /sdl /O2 /Oi /Oy- /GL /D _MBCS /Gm- /EHsc /MT /GS /Gy /fp:precise /Zc:wchar_t /Zc:forScope /Zc:inline /Fo"RELEASE\\" /Fd"RELEASE\VC141.PDB" /Gd /TP /analyze- /FC C:\USERS\180210\DESKTOP\作品最新\ENGINE\FBX.CPP
^C:\USERS\180210\DESKTOP\作品最新\ENGINE\IGAMEOBJECT.CPP
/c /Zi /nologo /W3 /WX- /diagnostics:classic /sdl /O2 /Oi /Oy- /GL /D _MBCS /Gm- /EHsc /MT /GS /Gy /fp:precise /Zc:wchar_t /Zc:forScope /Zc:inline /Fo"RELEASE\\" /Fd"RELEASE\VC141.PDB" /Gd /TP /analyze- /FC C:\USERS\180210\DESKTOP\作品最新\ENGINE\IGAMEOBJECT.CPP
^C:\USERS\180210\DESKTOP\作品最新\ENGINE\IMAGE.CPP
/c /Zi /nologo /W3 /WX- /diagnostics:classic /sdl /O2 /Oi /Oy- /GL /D _MBCS /Gm- /EHsc /MT /GS /Gy /fp:precise /Zc:wchar_t /Zc:forScope /Zc:inline /Fo"RELEASE\\" /Fd"RELEASE\VC141.PDB" /Gd /TP /analyze- /FC C:\USERS\180210\DESKTOP\作品最新\ENGINE\IMAGE.CPP
^C:\USERS\180210\DESKTOP\作品最新\ENGINE\INPUT.CPP
/c /Zi /nologo /W3 /WX- /diagnostics:classic /sdl /O2 /Oi /Oy- /GL /D _MBCS /Gm- /EHsc /MT /GS /Gy /fp:precise /Zc:wchar_t /Zc:forScope /Zc:inline /Fo"RELEASE\\" /Fd"RELEASE\VC141.PDB" /Gd /TP /analyze- /FC C:\USERS\180210\DESKTOP\作品最新\ENGINE\INPUT.CPP
^C:\USERS\180210\DESKTOP\作品最新\ENGINE\MODEL.CPP
/c /Zi /nologo /W3 /WX- /diagnostics:classic /sdl /O2 /Oi /Oy- /GL /D _MBCS /Gm- /EHsc /MT /GS /Gy /fp:precise /Zc:wchar_t /Zc:forScope /Zc:inline /Fo"RELEASE\\" /Fd"RELEASE\VC141.PDB" /Gd /TP /analyze- /FC C:\USERS\180210\DESKTOP\作品最新\ENGINE\MODEL.CPP
^C:\USERS\180210\DESKTOP\作品最新\ENGINE\QUAD.CPP
/c /Zi /nologo /W3 /WX- /diagnostics:classic /sdl /O2 /Oi /Oy- /GL /D _MBCS /Gm- /EHsc /MT /GS /Gy /fp:precise /Zc:wchar_t /Zc:forScope /Zc:inline /Fo"RELEASE\\" /Fd"RELEASE\VC141.PDB" /Gd /TP /analyze- /FC C:\USERS\180210\DESKTOP\作品最新\ENGINE\QUAD.CPP
^C:\USERS\180210\DESKTOP\作品最新\ENGINE\ROOTJOB.CPP
/c /Zi /nologo /W3 /WX- /diagnostics:classic /sdl /O2 /Oi /Oy- /GL /D _MBCS /Gm- /EHsc /MT /GS /Gy /fp:precise /Zc:wchar_t /Zc:forScope /Zc:inline /Fo"RELEASE\\" /Fd"RELEASE\VC141.PDB" /Gd /TP /analyze- /FC C:\USERS\180210\DESKTOP\作品最新\ENGINE\ROOTJOB.CPP
^C:\USERS\180210\DESKTOP\作品最新\ENGINE\SCENEMANAGER.CPP
/c /Zi /nologo /W3 /WX- /diagnostics:classic /sdl /O2 /Oi /Oy- /GL /D _MBCS /Gm- /EHsc /MT /GS /Gy /fp:precise /Zc:wchar_t /Zc:forScope /Zc:inline /Fo"RELEASE\\" /Fd"RELEASE\VC141.PDB" /Gd /TP /analyze- /FC C:\USERS\180210\DESKTOP\作品最新\ENGINE\SCENEMANAGER.CPP
^C:\USERS\180210\DESKTOP\作品最新\ENGINE\SPHERECOLLIDER.CPP
/c /Zi /nologo /W3 /WX- /diagnostics:classic /sdl /O2 /Oi /Oy- /GL /D _MBCS /Gm- /EHsc /MT /GS /Gy /fp:precise /Zc:wchar_t /Zc:forScope /Zc:inline /Fo"RELEASE\\" /Fd"RELEASE\VC141.PDB" /Gd /TP /analyze- /FC C:\USERS\180210\DESKTOP\作品最新\ENGINE\SPHERECOLLIDER.CPP
^C:\USERS\180210\DESKTOP\作品最新\ENGINE\SPRITE.CPP
/c /Zi /nologo /W3 /WX- /diagnostics:classic /sdl /O2 /Oi /Oy- /GL /D _MBCS /Gm- /EHsc /MT /GS /Gy /fp:precise /Zc:wchar_t /Zc:forScope /Zc:inline /Fo"RELEASE\\" /Fd"RELEASE\VC141.PDB" /Gd /TP /analyze- /FC C:\USERS\180210\DESKTOP\作品最新\ENGINE\SPRITE.CPP
^C:\USERS\180210\DESKTOP\作品最新\ENGINE\WINMAIN.CPP
/c /Zi /nologo /W3 /WX- /diagnostics:classic /sdl /O2 /Oi /Oy- /GL /D _MBCS /Gm- /EHsc /MT /GS /Gy /fp:precise /Zc:wchar_t /Zc:forScope /Zc:inline /Fo"RELEASE\\" /Fd"RELEASE\VC141.PDB" /Gd /TP /analyze- /FC C:\USERS\180210\DESKTOP\作品最新\ENGINE\WINMAIN.CPP
^C:\USERS\180210\DESKTOP\作品最新\FLOOR.CPP
/c /Zi /nologo /W3 /WX- /diagnostics:classic /sdl /O2 /Oi /Oy- /GL /D _MBCS /Gm- /EHsc /MT /GS /Gy /fp:precise /Zc:wchar_t /Zc:forScope /Zc:inline /Fo"RELEASE\\" /Fd"RELEASE\VC141.PDB" /Gd /TP /analyze- /FC C:\USERS\180210\DESKTOP\作品最新\FLOOR.CPP
^C:\USERS\180210\DESKTOP\作品最新\GAMEOVERSCENE.CPP
/c /Zi /nologo /W3 /WX- /diagnostics:classic /sdl /O2 /Oi /Oy- /GL /D _MBCS /Gm- /EHsc /MT /GS /Gy /fp:precise /Zc:wchar_t /Zc:forScope /Zc:inline /Fo"RELEASE\\" /Fd"RELEASE\VC141.PDB" /Gd /TP /analyze- /FC C:\USERS\180210\DESKTOP\作品最新\GAMEOVERSCENE.CPP
^C:\USERS\180210\DESKTOP\作品最新\NAVIGATIONAI.CPP
/c /Zi /nologo /W3 /WX- /diagnostics:classic /sdl /O2 /Oi /Oy- /GL /D _MBCS /Gm- /EHsc /MT /GS /Gy /fp:precise /Zc:wchar_t /Zc:forScope /Zc:inline /Fo"RELEASE\\" /Fd"RELEASE\VC141.PDB" /Gd /TP /analyze- /FC C:\USERS\180210\DESKTOP\作品最新\NAVIGATIONAI.CPP
^C:\USERS\180210\DESKTOP\作品最新\PLAYER.CPP
/c /Zi /nologo /W3 /WX- /diagnostics:classic /sdl /O2 /Oi /Oy- /GL /D _MBCS /Gm- /EHsc /MT /GS /Gy /fp:precise /Zc:wchar_t /Zc:forScope /Zc:inline /Fo"RELEASE\\" /Fd"RELEASE\VC141.PDB" /Gd /TP /analyze- /FC C:\USERS\180210\DESKTOP\作品最新\PLAYER.CPP
^C:\USERS\180210\DESKTOP\作品最新\PLAYSCENE.CPP
/c /Zi /nologo /W3 /WX- /diagnostics:classic /sdl /O2 /Oi /Oy- /GL /D _MBCS /Gm- /EHsc /MT /GS /Gy /fp:precise /Zc:wchar_t /Zc:forScope /Zc:inline /Fo"RELEASE\\" /Fd"RELEASE\VC141.PDB" /Gd /TP /analyze- /FC C:\USERS\180210\DESKTOP\作品最新\PLAYSCENE.CPP
^C:\USERS\180210\DESKTOP\作品最新\STAGE.CPP
/c /Zi /nologo /W3 /WX- /diagnostics:classic /sdl /O2 /Oi /Oy- /GL /D _MBCS /Gm- /EHsc /MT /GS /Gy /fp:precise /Zc:wchar_t /Zc:forScope /Zc:inline /Fo"RELEASE\\" /Fd"RELEASE\VC141.PDB" /Gd /TP /analyze- /FC C:\USERS\180210\DESKTOP\作品最新\STAGE.CPP
^C:\USERS\180210\DESKTOP\作品最新\TITLESCENE.CPP
/c /Zi /nologo /W3 /WX- /diagnostics:classic /sdl /O2 /Oi /Oy- /GL /D _MBCS /Gm- /EHsc /MT /GS /Gy /fp:precise /Zc:wchar_t /Zc:forScope /Zc:inline /Fo"RELEASE\\" /Fd"RELEASE\VC141.PDB" /Gd /TP /analyze- /FC C:\USERS\180210\DESKTOP\作品最新\TITLESCENE.CPP
^C:\USERS\180210\DESKTOP\作品最新\WALL.CPP
/c /Zi /nologo /W3 /WX- /diagnostics:classic /sdl /O2 /Oi /Oy- /GL /D _MBCS /Gm- /EHsc /MT /GS /Gy /fp:precise /Zc:wchar_t /Zc:forScope /Zc:inline /Fo"RELEASE\\" /Fd"RELEASE\VC141.PDB" /Gd /TP /analyze- /FC C:\USERS\180210\DESKTOP\作品最新\WALL.CPP
^D:\GE3A02\個人製作\作品VS2019\作品最新\AI.CPP
/c /Zi /nologo /W3 /WX- /diagnostics:classic /sdl /O2 /Oi /Oy- /GL /D _MBCS /Gm- /EHsc /MT /GS /Gy /fp:precise /Zc:wchar_t /Zc:forScope /Zc:inline /Fo"RELEASE\\" /Fd"RELEASE\VC141.PDB" /Gd /TP /analyze- /FC D:\GE3A02\個人製作\作品VS2019\作品最新\AI.CPP
^D:\GE3A02\個人製作\作品VS2019\作品最新\ARROW.CPP
/c /Zi /nologo /W3 /WX- /diagnostics:classic /sdl /O2 /Oi /Oy- /GL /D _MBCS /Gm- /EHsc /MT /GS /Gy /fp:precise /Zc:wchar_t /Zc:forScope /Zc:inline /Fo"RELEASE\\" /Fd"RELEASE\VC141.PDB" /Gd /TP /analyze- /FC D:\GE3A02\個人製作\作品VS2019\作品最新\ARROW.CPP
^D:\GE3A02\個人製作\作品VS2019\作品最新\CAMERATARGET.CPP
/c /Zi /nologo /W3 /WX- /diagnostics:classic /sdl /O2 /Oi /Oy- /GL /D _MBCS /Gm- /EHsc /MT /GS /Gy /fp:precise /Zc:wchar_t /Zc:forScope /Zc:inline /Fo"RELEASE\\" /Fd"RELEASE\VC141.PDB" /Gd /TP /analyze- /FC D:\GE3A02\個人製作\作品VS2019\作品最新\CAMERATARGET.CPP
^D:\GE3A02\個人製作\作品VS2019\作品最新\CHARACTER.CPP
/c /Zi /nologo /W3 /WX- /diagnostics:classic /sdl /O2 /Oi /Oy- /GL /D _MBCS /Gm- /EHsc /MT /GS /Gy /fp:precise /Zc:wchar_t /Zc:forScope /Zc:inline /Fo"RELEASE\\" /Fd"RELEASE\VC141.PDB" /Gd /TP /analyze- /FC D:\GE3A02\個人製作\作品VS2019\作品最新\CHARACTER.CPP
^D:\GE3A02\個人製作\作品VS2019\作品最新\CHARACTERAI.CPP
/c /Zi /nologo /W3 /WX- /diagnostics:classic /sdl /O2 /Oi /Oy- /GL /D _MBCS /Gm- /EHsc /MT /GS /Gy /fp:precise /Zc:wchar_t /Zc:forScope /Zc:inline /Fo"RELEASE\\" /Fd"RELEASE\VC141.PDB" /Gd /TP /analyze- /FC D:\GE3A02\個人製作\作品VS2019\作品最新\CHARACTERAI.CPP
^D:\GE3A02\個人製作\作品VS2019\作品最新\CHARACTERFOOT.CPP
/c /Zi /nologo /W3 /WX- /diagnostics:classic /sdl /O2 /Oi /Oy- /GL /D _MBCS /Gm- /EHsc /MT /GS /Gy /fp:precise /Zc:wchar_t /Zc:forScope /Zc:inline /Fo"RELEASE\\" /Fd"RELEASE\VC141.PDB" /Gd /TP /analyze- /FC D:\GE3A02\個人製作\作品VS2019\作品最新\CHARACTERFOOT.CPP
^D:\GE3A02\個人製作\作品VS2019\作品最新\CHARACTERFOOTL.CPP
/c /Zi /nologo /W3 /WX- /diagnostics:classic /sdl /O2 /Oi /Oy- /GL /D _MBCS /Gm- /EHsc /MT /GS /Gy /fp:precise /Zc:wchar_t /Zc:forScope /Zc:inline /Fo"RELEASE\\" /Fd"RELEASE\VC141.PDB" /Gd /TP /analyze- /FC D:\GE3A02\個人製作\作品VS2019\作品最新\CHARACTERFOOTL.CPP
^D:\GE3A02\個人製作\作品VS2019\作品最新\CHARACTERFOOTR.CPP
/c /Zi /nologo /W3 /WX- /diagnostics:classic /sdl /O2 /Oi /Oy- /GL /D _MBCS /Gm- /EHsc /MT /GS /Gy /fp:precise /Zc:wchar_t /Zc:forScope /Zc:inline /Fo"RELEASE\\" /Fd"RELEASE\VC141.PDB" /Gd /TP /analyze- /FC D:\GE3A02\個人製作\作品VS2019\作品最新\CHARACTERFOOTR.CPP
^D:\GE3A02\個人製作\作品VS2019\作品最新\CLEARSCENE.CPP
/c /Zi /nologo /W3 /WX- /diagnostics:classic /sdl /O2 /Oi /Oy- /GL /D _MBCS /Gm- /EHsc /MT /GS /Gy /fp:precise /Zc:wchar_t /Zc:forScope /Zc:inline /Fo"RELEASE\\" /Fd"RELEASE\VC141.PDB" /Gd /TP /analyze- /FC D:\GE3A02\個人製作\作品VS2019\作品最新\CLEARSCENE.CPP
^D:\GE3A02\個人製作\作品VS2019\作品最新\CRYSTAL.CPP
/c /Zi /nologo /W3 /WX- /diagnostics:classic /sdl /O2 /Oi /Oy- /GL /D _MBCS /Gm- /EHsc /MT /GS /Gy /fp:precise /Zc:wchar_t /Zc:forScope /Zc:inline /Fo"RELEASE\\" /Fd"RELEASE\VC141.PDB" /Gd /TP /analyze- /FC D:\GE3A02\個人製作\作品VS2019\作品最新\CRYSTAL.CPP
^D:\GE3A02\個人製作\作品VS2019\作品最新\CRYSTALUI.CPP
/c /Zi /nologo /W3 /WX- /diagnostics:classic /sdl /O2 /Oi /Oy- /GL /D _MBCS /Gm- /EHsc /MT /GS /Gy /fp:precise /Zc:wchar_t /Zc:forScope /Zc:inline /Fo"RELEASE\\" /Fd"RELEASE\VC141.PDB" /Gd /TP /analyze- /FC D:\GE3A02\個人製作\作品VS2019\作品最新\CRYSTALUI.CPP
^D:\GE3A02\個人製作\作品VS2019\作品最新\ENEMY.CPP
/c /Zi /nologo /W3 /WX- /diagnostics:classic /sdl /O2 /Oi /Oy- /GL /D _MBCS /Gm- /EHsc /MT /GS /Gy /fp:precise /Zc:wchar_t /Zc:forScope /Zc:inline /Fo"RELEASE\\" /Fd"RELEASE\VC141.PDB" /Gd /TP /analyze- /FC D:\GE3A02\個人製作\作品VS2019\作品最新\ENEMY.CPP
^D:\GE3A02\個人製作\作品VS2019\作品最新\ENGINE\AUDIO.CPP
/c /Zi /nologo /W3 /WX- /diagnostics:classic /sdl /O2 /Oi /Oy- /GL /D _MBCS /Gm- /EHsc /MT /GS /Gy /fp:precise /Zc:wchar_t /Zc:forScope /Zc:inline /Fo"RELEASE\\" /Fd"RELEASE\VC141.PDB" /Gd /TP /analyze- /FC D:\GE3A02\個人製作\作品VS2019\作品最新\ENGINE\AUDIO.CPP
^D:\GE3A02\個人製作\作品VS2019\作品最新\ENGINE\BOXCOLLIDER.CPP
/c /Zi /nologo /W3 /WX- /diagnostics:classic /sdl /O2 /Oi /Oy- /GL /D _MBCS /Gm- /EHsc /MT /GS /Gy /fp:precise /Zc:wchar_t /Zc:forScope /Zc:inline /Fo"RELEASE\\" /Fd"RELEASE\VC141.PDB" /Gd /TP /analyze- /FC D:\GE3A02\個人製作\作品VS2019\作品最新\ENGINE\BOXCOLLIDER.CPP
^D:\GE3A02\個人製作\作品VS2019\作品最新\ENGINE\CAMERA.CPP
/c /Zi /nologo /W3 /WX- /diagnostics:classic /sdl /O2 /Oi /Oy- /GL /D _MBCS /Gm- /EHsc /MT /GS /Gy /fp:precise /Zc:wchar_t /Zc:forScope /Zc:inline /Fo"RELEASE\\" /Fd"RELEASE\VC141.PDB" /Gd /TP /analyze- /FC D:\GE3A02\個人製作\作品VS2019\作品最新\ENGINE\CAMERA.CPP
^D:\GE3A02\個人製作\作品VS2019\作品最新\ENGINE\COLLIDER.CPP
/c /Zi /nologo /W3 /WX- /diagnostics:classic /sdl /O2 /Oi /Oy- /GL /D _MBCS /Gm- /EHsc /MT /GS /Gy /fp:precise /Zc:wchar_t /Zc:forScope /Zc:inline /Fo"RELEASE\\" /Fd"RELEASE\VC141.PDB" /Gd /TP /analyze- /FC D:\GE3A02\個人製作\作品VS2019\作品最新\ENGINE\COLLIDER.CPP
^D:\GE3A02\個人製作\作品VS2019\作品最新\ENGINE\CSVREADER.CPP
/c /Zi /nologo /W3 /WX- /diagnostics:classic /sdl /O2 /Oi /Oy- /GL /D _MBCS /Gm- /EHsc /MT /GS /Gy /fp:precise /Zc:wchar_t /Zc:forScope /Zc:inline /Fo"RELEASE\\" /Fd"RELEASE\VC141.PDB" /Gd /TP /analyze- /FC D:\GE3A02\個人製作\作品VS2019\作品最新\ENGINE\CSVREADER.CPP
^D:\GE3A02\個人製作\作品VS2019\作品最新\ENGINE\DIRECT3D.CPP
/c /Zi /nologo /W3 /WX- /diagnostics:classic /sdl /O2 /Oi /Oy- /GL /D _MBCS /Gm- /EHsc /MT /GS /Gy /fp:precise /Zc:wchar_t /Zc:forScope /Zc:inline /Fo"RELEASE\\" /Fd"RELEASE\VC141.PDB" /Gd /TP /analyze- /FC D:\GE3A02\個人製作\作品VS2019\作品最新\ENGINE\DIRECT3D.CPP
^D:\GE3A02\個人製作\作品VS2019\作品最新\ENGINE\FBX.CPP
/c /Zi /nologo /W3 /WX- /diagnostics:classic /sdl /O2 /Oi /Oy- /GL /D _MBCS /Gm- /EHsc /MT /GS /Gy /fp:precise /Zc:wchar_t /Zc:forScope /Zc:inline /Fo"RELEASE\\" /Fd"RELEASE\VC141.PDB" /Gd /TP /analyze- /FC D:\GE3A02\個人製作\作品VS2019\作品最新\ENGINE\FBX.CPP
^D:\GE3A02\個人製作\作品VS2019\作品最新\ENGINE\IGAMEOBJECT.CPP
/c /Zi /nologo /W3 /WX- /diagnostics:classic /sdl /O2 /Oi /Oy- /GL /D _MBCS /Gm- /EHsc /MT /GS /Gy /fp:precise /Zc:wchar_t /Zc:forScope /Zc:inline /Fo"RELEASE\\" /Fd"RELEASE\VC141.PDB" /Gd /TP /analyze- /FC D:\GE3A02\個人製作\作品VS2019\作品最新\ENGINE\IGAMEOBJECT.CPP
^D:\GE3A02\個人製作\作品VS2019\作品最新\ENGINE\IMAGE.CPP
/c /Zi /nologo /W3 /WX- /diagnostics:classic /sdl /O2 /Oi /Oy- /GL /D _MBCS /Gm- /EHsc /MT /GS /Gy /fp:precise /Zc:wchar_t /Zc:forScope /Zc:inline /Fo"RELEASE\\" /Fd"RELEASE\VC141.PDB" /Gd /TP /analyze- /FC D:\GE3A02\個人製作\作品VS2019\作品最新\ENGINE\IMAGE.CPP
^D:\GE3A02\個人製作\作品VS2019\作品最新\ENGINE\INPUT.CPP
/c /Zi /nologo /W3 /WX- /diagnostics:classic /sdl /O2 /Oi /Oy- /GL /D _MBCS /Gm- /EHsc /MT /GS /Gy /fp:precise /Zc:wchar_t /Zc:forScope /Zc:inline /Fo"RELEASE\\" /Fd"RELEASE\VC141.PDB" /Gd /TP /analyze- /FC D:\GE3A02\個人製作\作品VS2019\作品最新\ENGINE\INPUT.CPP
^D:\GE3A02\個人製作\作品VS2019\作品最新\ENGINE\MODEL.CPP
/c /Zi /nologo /W3 /WX- /diagnostics:classic /sdl /O2 /Oi /Oy- /GL /D _MBCS /Gm- /EHsc /MT /GS /Gy /fp:precise /Zc:wchar_t /Zc:forScope /Zc:inline /Fo"RELEASE\\" /Fd"RELEASE\VC141.PDB" /Gd /TP /analyze- /FC D:\GE3A02\個人製作\作品VS2019\作品最新\ENGINE\MODEL.CPP
^D:\GE3A02\個人製作\作品VS2019\作品最新\ENGINE\QUAD.CPP
/c /Zi /nologo /W3 /WX- /diagnostics:classic /sdl /O2 /Oi /Oy- /GL /D _MBCS /Gm- /EHsc /MT /GS /Gy /fp:precise /Zc:wchar_t /Zc:forScope /Zc:inline /Fo"RELEASE\\" /Fd"RELEASE\VC141.PDB" /Gd /TP /analyze- /FC D:\GE3A02\個人製作\作品VS2019\作品最新\ENGINE\QUAD.CPP
^D:\GE3A02\個人製作\作品VS2019\作品最新\ENGINE\ROOTJOB.CPP
/c /Zi /nologo /W3 /WX- /diagnostics:classic /sdl /O2 /Oi /Oy- /GL /D _MBCS /Gm- /EHsc /MT /GS /Gy /fp:precise /Zc:wchar_t /Zc:forScope /Zc:inline /Fo"RELEASE\\" /Fd"RELEASE\VC141.PDB" /Gd /TP /analyze- /FC D:\GE3A02\個人製作\作品VS2019\作品最新\ENGINE\ROOTJOB.CPP
^D:\GE3A02\個人製作\作品VS2019\作品最新\ENGINE\SCENEMANAGER.CPP
/c /Zi /nologo /W3 /WX- /diagnostics:classic /sdl /O2 /Oi /Oy- /GL /D _MBCS /Gm- /EHsc /MT /GS /Gy /fp:precise /Zc:wchar_t /Zc:forScope /Zc:inline /Fo"RELEASE\\" /Fd"RELEASE\VC141.PDB" /Gd /TP /analyze- /FC D:\GE3A02\個人製作\作品VS2019\作品最新\ENGINE\SCENEMANAGER.CPP
^D:\GE3A02\個人製作\作品VS2019\作品最新\ENGINE\SPHERECOLLIDER.CPP
/c /Zi /nologo /W3 /WX- /diagnostics:classic /sdl /O2 /Oi /Oy- /GL /D _MBCS /Gm- /EHsc /MT /GS /Gy /fp:precise /Zc:wchar_t /Zc:forScope /Zc:inline /Fo"RELEASE\\" /Fd"RELEASE\VC141.PDB" /Gd /TP /analyze- /FC D:\GE3A02\個人製作\作品VS2019\作品最新\ENGINE\SPHERECOLLIDER.CPP
^D:\GE3A02\個人製作\作品VS2019\作品最新\ENGINE\SPRITE.CPP
/c /Zi /nologo /W3 /WX- /diagnostics:classic /sdl /O2 /Oi /Oy- /GL /D _MBCS /Gm- /EHsc /MT /GS /Gy /fp:precise /Zc:wchar_t /Zc:forScope /Zc:inline /Fo"RELEASE\\" /Fd"RELEASE\VC141.PDB" /Gd /TP /analyze- /FC D:\GE3A02\個人製作\作品VS2019\作品最新\ENGINE\SPRITE.CPP
^D:\GE3A02\個人製作\作品VS2019\作品最新\ENGINE\WINMAIN.CPP
/c /Zi /nologo /W3 /WX- /diagnostics:classic /sdl /O2 /Oi /Oy- /GL /D _MBCS /Gm- /EHsc /MT /GS /Gy /fp:precise /Zc:wchar_t /Zc:forScope /Zc:inline /Fo"RELEASE\\" /Fd"RELEASE\VC141.PDB" /Gd /TP /analyze- /FC D:\GE3A02\個人製作\作品VS2019\作品最新\ENGINE\WINMAIN.CPP
^D:\GE3A02\個人製作\作品VS2019\作品最新\FLOOR.CPP
/c /Zi /nologo /W3 /WX- /diagnostics:classic /sdl /O2 /Oi /Oy- /GL /D _MBCS /Gm- /EHsc /MT /GS /Gy /fp:precise /Zc:wchar_t /Zc:forScope /Zc:inline /Fo"RELEASE\\" /Fd"RELEASE\VC141.PDB" /Gd /TP /analyze- /FC D:\GE3A02\個人製作\作品VS2019\作品最新\FLOOR.CPP
^D:\GE3A02\個人製作\作品VS2019\作品最新\GAMEOVERSCENE.CPP
/c /Zi /nologo /W3 /WX- /diagnostics:classic /sdl /O2 /Oi /Oy- /GL /D _MBCS /Gm- /EHsc /MT /GS /Gy /fp:precise /Zc:wchar_t /Zc:forScope /Zc:inline /Fo"RELEASE\\" /Fd"RELEASE\VC141.PDB" /Gd /TP /analyze- /FC D:\GE3A02\個人製作\作品VS2019\作品最新\GAMEOVERSCENE.CPP
^D:\GE3A02\個人製作\作品VS2019\作品最新\NAVIGATIONAI.CPP
/c /Zi /nologo /W3 /WX- /diagnostics:classic /sdl /O2 /Oi /Oy- /GL /D _MBCS /Gm- /EHsc /MT /GS /Gy /fp:precise /Zc:wchar_t /Zc:forScope /Zc:inline /Fo"RELEASE\\" /Fd"RELEASE\VC141.PDB" /Gd /TP /analyze- /FC D:\GE3A02\個人製作\作品VS2019\作品最新\NAVIGATIONAI.CPP
^D:\GE3A02\個人製作\作品VS2019\作品最新\PLAYER.CPP
/c /Zi /nologo /W3 /WX- /diagnostics:classic /sdl /O2 /Oi /Oy- /GL /D _MBCS /Gm- /EHsc /MT /GS /Gy /fp:precise /Zc:wchar_t /Zc:forScope /Zc:inline /Fo"RELEASE\\" /Fd"RELEASE\VC141.PDB" /Gd /TP /analyze- /FC D:\GE3A02\個人製作\作品VS2019\作品最新\PLAYER.CPP
^D:\GE3A02\個人製作\作品VS2019\作品最新\PLAYSCENE.CPP
/c /Zi /nologo /W3 /WX- /diagnostics:classic /sdl /O2 /Oi /Oy- /GL /D _MBCS /Gm- /EHsc /MT /GS /Gy /fp:precise /Zc:wchar_t /Zc:forScope /Zc:inline /Fo"RELEASE\\" /Fd"RELEASE\VC141.PDB" /Gd /TP /analyze- /FC D:\GE3A02\個人製作\作品VS2019\作品最新\PLAYSCENE.CPP
^D:\GE3A02\個人製作\作品VS2019\作品最新\STAGE.CPP
/c /Zi /nologo /W3 /WX- /diagnostics:classic /sdl /O2 /Oi /Oy- /GL /D _MBCS /Gm- /EHsc /MT /GS /Gy /fp:precise /Zc:wchar_t /Zc:forScope /Zc:inline /Fo"RELEASE\\" /Fd"RELEASE\VC141.PDB" /Gd /TP /analyze- /FC D:\GE3A02\個人製作\作品VS2019\作品最新\STAGE.CPP
^D:\GE3A02\個人製作\作品VS2019\作品最新\TITLESCENE.CPP
/c /Zi /nologo /W3 /WX- /diagnostics:classic /sdl /O2 /Oi /Oy- /GL /D _MBCS /Gm- /EHsc /MT /GS /Gy /fp:precise /Zc:wchar_t /Zc:forScope /Zc:inline /Fo"RELEASE\\" /Fd"RELEASE\VC141.PDB" /Gd /TP /analyze- /FC D:\GE3A02\個人製作\作品VS2019\作品最新\TITLESCENE.CPP
^D:\GE3A02\個人製作\作品VS2019\作品最新\WALL.CPP
/c /Zi /nologo /W3 /WX- /diagnostics:classic /sdl /O2 /Oi /Oy- /GL /D _MBCS /Gm- /EHsc /MT /GS /Gy /fp:precise /Zc:wchar_t /Zc:forScope /Zc:inline /Fo"RELEASE\\" /Fd"RELEASE\VC141.PDB" /Gd /TP /analyze- /FC D:\GE3A02\個人製作\作品VS2019\作品最新\WALL.CPP
