^C:\USERS\180210\DESKTOP\作品最新\RELEASE\AI.OBJ|C:\USERS\180210\DESKTOP\作品最新\RELEASE\ARROW.OBJ|C:\USERS\180210\DESKTOP\作品最新\RELEASE\AUDIO.OBJ|C:\USERS\180210\DESKTOP\作品最新\RELEASE\BOXCOLLIDER.OBJ|C:\USERS\180210\DESKTOP\作品最新\RELEASE\CAMERA.OBJ|C:\USERS\180210\DESKTOP\作品最新\RELEASE\CAMERATARGET.OBJ|C:\USERS\180210\DESKTOP\作品最新\RELEASE\CHARACTER.OBJ|C:\USERS\180210\DESKTOP\作品最新\RELEASE\CHARACTERAI.OBJ|C:\USERS\180210\DESKTOP\作品最新\RELEASE\CHARACTERFOOT.OBJ|C:\USERS\180210\DESKTOP\作品最新\RELEASE\CHARACTERFOOTL.OBJ|C:\USERS\180210\DESKTOP\作品最新\RELEASE\CHARACTERFOOTR.OBJ|C:\USERS\180210\DESKTOP\作品最新\RELEASE\CLEARSCENE.OBJ|C:\USERS\180210\DESKTOP\作品最新\RELEASE\COLLIDER.OBJ|C:\USERS\180210\DESKTOP\作品最新\RELEASE\CRYSTAL.OBJ|C:\USERS\180210\DESKTOP\作品最新\RELEASE\CRYSTALUI.OBJ|C:\USERS\180210\DESKTOP\作品最新\RELEASE\CSVREADER.OBJ|C:\USERS\180210\DESKTOP\作品最新\RELEASE\DIRECT3D.OBJ|C:\USERS\180210\DESKTOP\作品最新\RELEASE\ENEMY.OBJ|C:\USERS\180210\DESKTOP\作品最新\RELEASE\FBX.OBJ|C:\USERS\180210\DESKTOP\作品最新\RELEASE\FLOOR.OBJ|C:\USERS\180210\DESKTOP\作品最新\RELEASE\GAMEOVERSCENE.OBJ|C:\USERS\180210\DESKTOP\作品最新\RELEASE\IGAMEOBJECT.OBJ|C:\USERS\180210\DESKTOP\作品最新\RELEASE\IMAGE.OBJ|C:\USERS\180210\DESKTOP\作品最新\RELEASE\INPUT.OBJ|C:\USERS\180210\DESKTOP\作品最新\RELEASE\MODEL.OBJ|C:\USERS\180210\DESKTOP\作品最新\RELEASE\NAVIGATIONAI.OBJ|C:\USERS\180210\DESKTOP\作品最新\RELEASE\PLAYER.OBJ|C:\USERS\180210\DESKTOP\作品最新\RELEASE\PLAYSCENE.OBJ|C:\USERS\180210\DESKTOP\作品最新\RELEASE\QUAD.OBJ|C:\USERS\180210\DESKTOP\作品最新\RELEASE\ROOTJOB.OBJ|C:\USERS\180210\DESKTOP\作品最新\RELEASE\SCENEMANAGER.OBJ|C:\USERS\180210\DESKTOP\作品最新\RELEASE\SPHERECOLLIDER.OBJ|C:\USERS\180210\DESKTOP\作品最新\RELEASE\SPRITE.OBJ|C:\USERS\180210\DESKTOP\作品最新\RELEASE\STAGE.OBJ|C:\USERS\180210\DESKTOP\作品最新\RELEASE\TITLESCENE.OBJ|C:\USERS\180210\DESKTOP\作品最新\RELEASE\WALL.OBJ|C:\USERS\180210\DESKTOP\作品最新\RELEASE\WINMAIN.OBJ
C:\USERS\180210\DESKTOP\作品最新\RELEASE\3D_DOTEATGAME.EXE
C:\USERS\180210\DESKTOP\作品最新\RELEASE\3D_DOTEATGAME.PDB
^D:\GE3A02\個人製作\作品VS2019\作品最新\RELEASE\AI.OBJ|D:\GE3A02\個人製作\作品VS2019\作品最新\RELEASE\ARROW.OBJ|D:\GE3A02\個人製作\作品VS2019\作品最新\RELEASE\AUDIO.OBJ|D:\GE3A02\個人製作\作品VS2019\作品最新\RELEASE\BOXCOLLIDER.OBJ|D:\GE3A02\個人製作\作品VS2019\作品最新\RELEASE\CAMERA.OBJ|D:\GE3A02\個人製作\作品VS2019\作品最新\RELEASE\CAMERATARGET.OBJ|D:\GE3A02\個人製作\作品VS2019\作品最新\RELEASE\CHARACTER.OBJ|D:\GE3A02\個人製作\作品VS2019\作品最新\RELEASE\CHARACTERAI.OBJ|D:\GE3A02\個人製作\作品VS2019\作品最新\RELEASE\CHARACTERFOOT.OBJ|D:\GE3A02\個人製作\作品VS2019\作品最新\RELEASE\CHARACTERFOOTL.OBJ|D:\GE3A02\個人製作\作品VS2019\作品最新\RELEASE\CHARACTERFOOTR.OBJ|D:\GE3A02\個人製作\作品VS2019\作品最新\RELEASE\CLEARSCENE.OBJ|D:\GE3A02\個人製作\作品VS2019\作品最新\RELEASE\COLLIDER.OBJ|D:\GE3A02\個人製作\作品VS2019\作品最新\RELEASE\CRYSTAL.OBJ|D:\GE3A02\個人製作\作品VS2019\作品最新\RELEASE\CRYSTALUI.OBJ|D:\GE3A02\個人製作\作品VS2019\作品最新\RELEASE\CSVREADER.OBJ|D:\GE3A02\個人製作\作品VS2019\作品最新\RELEASE\DIRECT3D.OBJ|D:\GE3A02\個人製作\作品VS2019\作品最新\RELEASE\ENEMY.OBJ|D:\GE3A02\個人製作\作品VS2019\作品最新\RELEASE\FBX.OBJ|D:\GE3A02\個人製作\作品VS2019\作品最新\RELEASE\FLOOR.OBJ|D:\GE3A02\個人製作\作品VS2019\作品最新\RELEASE\GAMEOVERSCENE.OBJ|D:\GE3A02\個人製作\作品VS2019\作品最新\RELEASE\IGAMEOBJECT.OBJ|D:\GE3A02\個人製作\作品VS2019\作品最新\RELEASE\IMAGE.OBJ|D:\GE3A02\個人製作\作品VS2019\作品最新\RELEASE\INPUT.OBJ|D:\GE3A02\個人製作\作品VS2019\作品最新\RELEASE\MODEL.OBJ|D:\GE3A02\個人製作\作品VS2019\作品最新\RELEASE\NAVIGATIONAI.OBJ|D:\GE3A02\個人製作\作品VS2019\作品最新\RELEASE\PLAYER.OBJ|D:\GE3A02\個人製作\作品VS2019\作品最新\RELEASE\PLAYSCENE.OBJ|D:\GE3A02\個人製作\作品VS2019\作品最新\RELEASE\QUAD.OBJ|D:\GE3A02\個人製作\作品VS2019\作品最新\RELEASE\ROOTJOB.OBJ|D:\GE3A02\個人製作\作品VS2019\作品最新\RELEASE\SCENEMANAGER.OBJ|D:\GE3A02\個人製作\作品VS2019\作品最新\RELEASE\SPHERECOLLIDER.OBJ|D:\GE3A02\個人製作\作品VS2019\作品最新\RELEASE\SPRITE.OBJ|D:\GE3A02\個人製作\作品VS2019\作品最新\RELEASE\STAGE.OBJ|D:\GE3A02\個人製作\作品VS2019\作品最新\RELEASE\TITLESCENE.OBJ|D:\GE3A02\個人製作\作品VS2019\作品最新\RELEASE\WALL.OBJ|D:\GE3A02\個人製作\作品VS2019\作品最新\RELEASE\WINMAIN.OBJ
D:\GE3A02\個人製作\作品VS2019\作品最新\RELEASE\3D_DOTEATGAME.EXE
D:\GE3A02\個人製作\作品VS2019\作品最新\RELEASE\3D_DOTEATGAME.PDB
