^D:\GE3A02\個人製作\作品\作品最新\WATERSHADER.HLSL
/nologo /E"VS" /T vs_4_0 /Fo "D:\GE3A02\個人製作\作品\作品最新\Release\WaterShader.cso" /Od /Zi D:\GE3A02\個人製作\作品\作品最新\WATERSHADER.HLSL
^D:\GE3A02\個人製作\作品\作品最新\PHONGSHADER.HLSL
/nologo /E"VS" /T vs_4_0 /Fo "D:\GE3A02\個人製作\作品\作品最新\Release\PhongShader.cso" /Od /Zi D:\GE3A02\個人製作\作品\作品最新\PHONGSHADER.HLSL
^D:\GE3A02\個人製作\作品\作品最新\COMMONSHADER.HLSL
/nologo /E"VS" /T vs_4_0 /Fo "D:\GE3A02\個人製作\作品\作品最新\Release\CommonShader.cso" /Od /Zi D:\GE3A02\個人製作\作品\作品最新\COMMONSHADER.HLSL
^D:\GE3A02\個人製作\作品\作品最新\COLORCHANGESHADER.HLSL
/nologo /E"VS" /T vs_4_0 /Fo "D:\GE3A02\個人製作\作品\作品最新\Release\ColorChangeShader.cso" /Od /Zi D:\GE3A02\個人製作\作品\作品最新\COLORCHANGESHADER.HLSL
^D:\GE3A02\個人製作\作品\作品最新 - コピー\COLORCHANGESHADER.HLSL
/nologo /E"VS" /T vs_4_0 /Fo "D:\GE3A02\個人製作\作品\作品最新 - コピー\Release\ColorChangeShader.cso" /Od /Zi D:\GE3A02\個人製作\作品\作品最新 - コピー\COLORCHANGESHADER.HLSL
^D:\GE3A02\個人製作\作品\作品最新 - コピー\COMMONSHADER.HLSL
/nologo /E"VS" /T vs_4_0 /Fo "D:\GE3A02\個人製作\作品\作品最新 - コピー\Release\CommonShader.cso" /Od /Zi D:\GE3A02\個人製作\作品\作品最新 - コピー\COMMONSHADER.HLSL
^D:\GE3A02\個人製作\作品\作品最新 - コピー\WATERSHADER.HLSL
/nologo /E"VS" /T vs_4_0 /Fo "D:\GE3A02\個人製作\作品\作品最新 - コピー\Release\WaterShader.cso" /Od /Zi D:\GE3A02\個人製作\作品\作品最新 - コピー\WATERSHADER.HLSL
^C:\USERS\みぃな\DESKTOP\個人製作\作品\作品最新 - コピー\COLORCHANGESHADER.HLSL
/nologo /E"VS" /T vs_4_0 /Fo "C:\Users\みぃな\Desktop\個人製作\作品\作品最新 - コピー\Release\ColorChangeShader.cso" /Od /Zi C:\USERS\みぃな\DESKTOP\個人製作\作品\作品最新 - コピー\COLORCHANGESHADER.HLSL
^C:\USERS\みぃな\DESKTOP\個人製作\作品\作品最新 - コピー\COMMONSHADER.HLSL
/nologo /E"VS" /T vs_4_0 /Fo "C:\Users\みぃな\Desktop\個人製作\作品\作品最新 - コピー\Release\CommonShader.cso" /Od /Zi C:\USERS\みぃな\DESKTOP\個人製作\作品\作品最新 - コピー\COMMONSHADER.HLSL
^C:\USERS\みぃな\DESKTOP\個人製作\作品\作品最新 - コピー\WATERSHADER.HLSL
/nologo /E"VS" /T vs_4_0 /Fo "C:\Users\みぃな\Desktop\個人製作\作品\作品最新 - コピー\Release\WaterShader.cso" /Od /Zi C:\USERS\みぃな\DESKTOP\個人製作\作品\作品最新 - コピー\WATERSHADER.HLSL
