^C:\USERS\180210\DESKTOP\新しいフォルダー\COLORCHANGESHADER.HLSL
C:\PROGRAM FILES (X86)\WINDOWS KITS\10\BIN\10.0.17763.0\X86\FXC.EXE
^C:\USERS\180210\DESKTOP\新しいフォルダー\COMMONSHADER.HLSL
C:\PROGRAM FILES (X86)\WINDOWS KITS\10\BIN\10.0.17763.0\X86\FXC.EXE
^C:\USERS\180210\DESKTOP\新しいフォルダー\WATERSHADER.HLSL
C:\PROGRAM FILES (X86)\WINDOWS KITS\10\BIN\10.0.17763.0\X86\FXC.EXE
