^D:\GE3A02\個人製作\作品\作品最新\AI.CPP|D:\GE3A02\個人製作\作品\作品最新\ARROW.CPP|D:\GE3A02\個人製作\作品\作品最新\CAMERATARGET.CPP|D:\GE3A02\個人製作\作品\作品最新\CHARACTER.CPP|D:\GE3A02\個人製作\作品\作品最新\CHARACTERAI.CPP|D:\GE3A02\個人製作\作品\作品最新\CHARACTERFOOT.CPP|D:\GE3A02\個人製作\作品\作品最新\CHARACTERFOOTL.CPP|D:\GE3A02\個人製作\作品\作品最新\CHARACTERFOOTR.CPP|D:\GE3A02\個人製作\作品\作品最新\CLEARSCENE.CPP|D:\GE3A02\個人製作\作品\作品最新\CRYSTAL.CPP|D:\GE3A02\個人製作\作品\作品最新\CRYSTALUI.CPP|D:\GE3A02\個人製作\作品\作品最新\ENEMY.CPP|D:\GE3A02\個人製作\作品\作品最新\ENGINE\AUDIO.CPP|D:\GE3A02\個人製作\作品\作品最新\ENGINE\BOXCOLLIDER.CPP|D:\GE3A02\個人製作\作品\作品最新\ENGINE\CAMERA.CPP|D:\GE3A02\個人製作\作品\作品最新\ENGINE\COLLIDER.CPP|D:\GE3A02\個人製作\作品\作品最新\ENGINE\CSVREADER.CPP|D:\GE3A02\個人製作\作品\作品最新\ENGINE\DIRECT3D.CPP|D:\GE3A02\個人製作\作品\作品最新\ENGINE\FBX.CPP|D:\GE3A02\個人製作\作品\作品最新\ENGINE\IGAMEOBJECT.CPP|D:\GE3A02\個人製作\作品\作品最新\ENGINE\IMAGE.CPP|D:\GE3A02\個人製作\作品\作品最新\ENGINE\INPUT.CPP|D:\GE3A02\個人製作\作品\作品最新\ENGINE\MODEL.CPP|D:\GE3A02\個人製作\作品\作品最新\ENGINE\QUAD.CPP|D:\GE3A02\個人製作\作品\作品最新\ENGINE\ROOTJOB.CPP|D:\GE3A02\個人製作\作品\作品最新\ENGINE\SCENEMANAGER.CPP|D:\GE3A02\個人製作\作品\作品最新\ENGINE\SPHERECOLLIDER.CPP|D:\GE3A02\個人製作\作品\作品最新\ENGINE\SPRITE.CPP|D:\GE3A02\個人製作\作品\作品最新\ENGINE\WINMAIN.CPP|D:\GE3A02\個人製作\作品\作品最新\FLOOR.CPP|D:\GE3A02\個人製作\作品\作品最新\GAMEOVERSCENE.CPP|D:\GE3A02\個人製作\作品\作品最新\NAVIGATIONAI.CPP|D:\GE3A02\個人製作\作品\作品最新\PLAYER.CPP|D:\GE3A02\個人製作\作品\作品最新\PLAYSCENE.CPP|D:\GE3A02\個人製作\作品\作品最新\STAGE.CPP|D:\GE3A02\個人製作\作品\作品最新\TITLESCENE.CPP|D:\GE3A02\個人製作\作品\作品最新\WALL.CPP|D:\GE3A02\個人製作\作品\作品最新\WATER.CPP
D:\GE3A02\個人製作\作品\作品最新\DEBUG\VC141.PDB
D:\GE3A02\個人製作\作品\作品最新\DEBUG\VC141.IDB
D:\GE3A02\個人製作\作品\作品最新\DEBUG\IGAMEOBJECT.OBJ
D:\GE3A02\個人製作\作品\作品最新\DEBUG\FBX.OBJ
D:\GE3A02\個人製作\作品\作品最新\DEBUG\DIRECT3D.OBJ
D:\GE3A02\個人製作\作品\作品最新\DEBUG\CSVREADER.OBJ
D:\GE3A02\個人製作\作品\作品最新\DEBUG\COLLIDER.OBJ
D:\GE3A02\個人製作\作品\作品最新\DEBUG\CAMERA.OBJ
D:\GE3A02\個人製作\作品\作品最新\DEBUG\BOXCOLLIDER.OBJ
D:\GE3A02\個人製作\作品\作品最新\DEBUG\AUDIO.OBJ
D:\GE3A02\個人製作\作品\作品最新\DEBUG\ENEMY.OBJ
D:\GE3A02\個人製作\作品\作品最新\DEBUG\CRYSTALUI.OBJ
D:\GE3A02\個人製作\作品\作品最新\DEBUG\CRYSTAL.OBJ
D:\GE3A02\個人製作\作品\作品最新\DEBUG\CLEARSCENE.OBJ
D:\GE3A02\個人製作\作品\作品最新\DEBUG\CHARACTERFOOTR.OBJ
D:\GE3A02\個人製作\作品\作品最新\DEBUG\CHARACTERFOOTL.OBJ
D:\GE3A02\個人製作\作品\作品最新\DEBUG\CHARACTERFOOT.OBJ
D:\GE3A02\個人製作\作品\作品最新\DEBUG\CHARACTERAI.OBJ
D:\GE3A02\個人製作\作品\作品最新\DEBUG\CHARACTER.OBJ
D:\GE3A02\個人製作\作品\作品最新\DEBUG\CAMERATARGET.OBJ
D:\GE3A02\個人製作\作品\作品最新\DEBUG\ARROW.OBJ
D:\GE3A02\個人製作\作品\作品最新\DEBUG\AI.OBJ
D:\GE3A02\個人製作\作品\作品最新\DEBUG\WATER.OBJ
D:\GE3A02\個人製作\作品\作品最新\DEBUG\WALL.OBJ
D:\GE3A02\個人製作\作品\作品最新\DEBUG\TITLESCENE.OBJ
D:\GE3A02\個人製作\作品\作品最新\DEBUG\STAGE.OBJ
D:\GE3A02\個人製作\作品\作品最新\DEBUG\PLAYSCENE.OBJ
D:\GE3A02\個人製作\作品\作品最新\DEBUG\PLAYER.OBJ
D:\GE3A02\個人製作\作品\作品最新\DEBUG\NAVIGATIONAI.OBJ
D:\GE3A02\個人製作\作品\作品最新\DEBUG\GAMEOVERSCENE.OBJ
D:\GE3A02\個人製作\作品\作品最新\DEBUG\FLOOR.OBJ
D:\GE3A02\個人製作\作品\作品最新\DEBUG\WINMAIN.OBJ
D:\GE3A02\個人製作\作品\作品最新\DEBUG\SPRITE.OBJ
D:\GE3A02\個人製作\作品\作品最新\DEBUG\SPHERECOLLIDER.OBJ
D:\GE3A02\個人製作\作品\作品最新\DEBUG\SCENEMANAGER.OBJ
D:\GE3A02\個人製作\作品\作品最新\DEBUG\ROOTJOB.OBJ
D:\GE3A02\個人製作\作品\作品最新\DEBUG\QUAD.OBJ
D:\GE3A02\個人製作\作品\作品最新\DEBUG\MODEL.OBJ
D:\GE3A02\個人製作\作品\作品最新\DEBUG\INPUT.OBJ
D:\GE3A02\個人製作\作品\作品最新\DEBUG\IMAGE.OBJ
^D:\GE3A02\個人製作\作品\作品最新\ENGINE\CSVREADER.CPP
D:\GE3A02\個人製作\作品\作品最新\DEBUG\VC141.PDB
^D:\GE3A02\個人製作\作品\作品最新\ENGINE\INPUT.CPP
D:\GE3A02\個人製作\作品\作品最新\DEBUG\VC141.PDB
^D:\GE3A02\個人製作\作品\作品最新\CAMERATARGET.CPP|D:\GE3A02\個人製作\作品\作品最新\CHARACTER.CPP|D:\GE3A02\個人製作\作品\作品最新\CRYSTAL.CPP|D:\GE3A02\個人製作\作品\作品最新\ENEMY.CPP|D:\GE3A02\個人製作\作品\作品最新\NAVIGATIONAI.CPP|D:\GE3A02\個人製作\作品\作品最新\PLAYER.CPP|D:\GE3A02\個人製作\作品\作品最新\PLAYSCENE.CPP|D:\GE3A02\個人製作\作品\作品最新\STAGE.CPP|D:\GE3A02\個人製作\作品\作品最新\WALL.CPP
D:\GE3A02\個人製作\作品\作品最新\DEBUG\VC141.PDB
D:\GE3A02\個人製作\作品\作品最新\DEBUG\VC141.IDB
D:\GE3A02\個人製作\作品\作品最新\DEBUG\WALL.OBJ
D:\GE3A02\個人製作\作品\作品最新\DEBUG\STAGE.OBJ
D:\GE3A02\個人製作\作品\作品最新\DEBUG\PLAYSCENE.OBJ
D:\GE3A02\個人製作\作品\作品最新\DEBUG\PLAYER.OBJ
D:\GE3A02\個人製作\作品\作品最新\DEBUG\NAVIGATIONAI.OBJ
D:\GE3A02\個人製作\作品\作品最新\DEBUG\ENEMY.OBJ
D:\GE3A02\個人製作\作品\作品最新\DEBUG\CRYSTAL.OBJ
D:\GE3A02\個人製作\作品\作品最新\DEBUG\CHARACTER.OBJ
D:\GE3A02\個人製作\作品\作品最新\DEBUG\CAMERATARGET.OBJ
^D:\GE3A02\個人製作\作品\作品最新\CRYSTAL.CPP|D:\GE3A02\個人製作\作品\作品最新\STAGE.CPP
D:\GE3A02\個人製作\作品\作品最新\DEBUG\VC141.PDB
D:\GE3A02\個人製作\作品\作品最新\DEBUG\VC141.IDB
D:\GE3A02\個人製作\作品\作品最新\DEBUG\STAGE.OBJ
D:\GE3A02\個人製作\作品\作品最新\DEBUG\CRYSTAL.OBJ
^D:\GE3A02\個人製作\作品\作品最新\ENGINE\MODEL.CPP|D:\GE3A02\個人製作\作品\作品最新\ENGINE\WINMAIN.CPP
D:\GE3A02\個人製作\作品\作品最新\DEBUG\VC141.PDB
D:\GE3A02\個人製作\作品\作品最新\DEBUG\VC141.IDB
D:\GE3A02\個人製作\作品\作品最新\DEBUG\WINMAIN.OBJ
D:\GE3A02\個人製作\作品\作品最新\DEBUG\MODEL.OBJ
^D:\GE3A02\個人製作\作品\作品最新\ENGINE\FBX.CPP|D:\GE3A02\個人製作\作品\作品最新\ENGINE\MODEL.CPP
D:\GE3A02\個人製作\作品\作品最新\DEBUG\VC141.PDB
D:\GE3A02\個人製作\作品\作品最新\DEBUG\VC141.IDB
D:\GE3A02\個人製作\作品\作品最新\DEBUG\MODEL.OBJ
D:\GE3A02\個人製作\作品\作品最新\DEBUG\FBX.OBJ
^D:\GE3A02\個人製作\作品\作品最新\AI.CPP|D:\GE3A02\個人製作\作品\作品最新\ARROW.CPP|D:\GE3A02\個人製作\作品\作品最新\CAMERATARGET.CPP|D:\GE3A02\個人製作\作品\作品最新\CHARACTER.CPP|D:\GE3A02\個人製作\作品\作品最新\CHARACTERAI.CPP|D:\GE3A02\個人製作\作品\作品最新\CHARACTERFOOT.CPP|D:\GE3A02\個人製作\作品\作品最新\CHARACTERFOOTL.CPP|D:\GE3A02\個人製作\作品\作品最新\CHARACTERFOOTR.CPP|D:\GE3A02\個人製作\作品\作品最新\CLEARSCENE.CPP|D:\GE3A02\個人製作\作品\作品最新\CRYSTAL.CPP|D:\GE3A02\個人製作\作品\作品最新\CRYSTALUI.CPP|D:\GE3A02\個人製作\作品\作品最新\ENEMY.CPP|D:\GE3A02\個人製作\作品\作品最新\ENGINE\AUDIO.CPP|D:\GE3A02\個人製作\作品\作品最新\ENGINE\BOXCOLLIDER.CPP|D:\GE3A02\個人製作\作品\作品最新\ENGINE\CAMERA.CPP|D:\GE3A02\個人製作\作品\作品最新\ENGINE\COLLIDER.CPP|D:\GE3A02\個人製作\作品\作品最新\ENGINE\DIRECT3D.CPP|D:\GE3A02\個人製作\作品\作品最新\ENGINE\FBX.CPP|D:\GE3A02\個人製作\作品\作品最新\ENGINE\IGAMEOBJECT.CPP|D:\GE3A02\個人製作\作品\作品最新\ENGINE\IMAGE.CPP|D:\GE3A02\個人製作\作品\作品最新\ENGINE\MODEL.CPP|D:\GE3A02\個人製作\作品\作品最新\ENGINE\QUAD.CPP|D:\GE3A02\個人製作\作品\作品最新\ENGINE\ROOTJOB.CPP|D:\GE3A02\個人製作\作品\作品最新\ENGINE\SCENEMANAGER.CPP|D:\GE3A02\個人製作\作品\作品最新\ENGINE\SPHERECOLLIDER.CPP|D:\GE3A02\個人製作\作品\作品最新\ENGINE\SPRITE.CPP|D:\GE3A02\個人製作\作品\作品最新\ENGINE\WINMAIN.CPP|D:\GE3A02\個人製作\作品\作品最新\FLOOR.CPP|D:\GE3A02\個人製作\作品\作品最新\GAMEOVERSCENE.CPP|D:\GE3A02\個人製作\作品\作品最新\NAVIGATIONAI.CPP|D:\GE3A02\個人製作\作品\作品最新\PLAYER.CPP|D:\GE3A02\個人製作\作品\作品最新\PLAYSCENE.CPP|D:\GE3A02\個人製作\作品\作品最新\STAGE.CPP|D:\GE3A02\個人製作\作品\作品最新\TITLESCENE.CPP|D:\GE3A02\個人製作\作品\作品最新\WALL.CPP|D:\GE3A02\個人製作\作品\作品最新\WATER.CPP
D:\GE3A02\個人製作\作品\作品最新\DEBUG\VC141.PDB
D:\GE3A02\個人製作\作品\作品最新\DEBUG\VC141.IDB
D:\GE3A02\個人製作\作品\作品最新\DEBUG\IMAGE.OBJ
D:\GE3A02\個人製作\作品\作品最新\DEBUG\IGAMEOBJECT.OBJ
D:\GE3A02\個人製作\作品\作品最新\DEBUG\FBX.OBJ
D:\GE3A02\個人製作\作品\作品最新\DEBUG\DIRECT3D.OBJ
D:\GE3A02\個人製作\作品\作品最新\DEBUG\COLLIDER.OBJ
D:\GE3A02\個人製作\作品\作品最新\DEBUG\CAMERA.OBJ
D:\GE3A02\個人製作\作品\作品最新\DEBUG\BOXCOLLIDER.OBJ
D:\GE3A02\個人製作\作品\作品最新\DEBUG\AUDIO.OBJ
D:\GE3A02\個人製作\作品\作品最新\DEBUG\ENEMY.OBJ
D:\GE3A02\個人製作\作品\作品最新\DEBUG\CRYSTALUI.OBJ
D:\GE3A02\個人製作\作品\作品最新\DEBUG\CRYSTAL.OBJ
D:\GE3A02\個人製作\作品\作品最新\DEBUG\CLEARSCENE.OBJ
D:\GE3A02\個人製作\作品\作品最新\DEBUG\CHARACTERFOOTR.OBJ
D:\GE3A02\個人製作\作品\作品最新\DEBUG\CHARACTERFOOTL.OBJ
D:\GE3A02\個人製作\作品\作品最新\DEBUG\CHARACTERFOOT.OBJ
D:\GE3A02\個人製作\作品\作品最新\DEBUG\CHARACTERAI.OBJ
D:\GE3A02\個人製作\作品\作品最新\DEBUG\CHARACTER.OBJ
D:\GE3A02\個人製作\作品\作品最新\DEBUG\CAMERATARGET.OBJ
D:\GE3A02\個人製作\作品\作品最新\DEBUG\ARROW.OBJ
D:\GE3A02\個人製作\作品\作品最新\DEBUG\AI.OBJ
D:\GE3A02\個人製作\作品\作品最新\DEBUG\WATER.OBJ
D:\GE3A02\個人製作\作品\作品最新\DEBUG\WALL.OBJ
D:\GE3A02\個人製作\作品\作品最新\DEBUG\TITLESCENE.OBJ
D:\GE3A02\個人製作\作品\作品最新\DEBUG\STAGE.OBJ
D:\GE3A02\個人製作\作品\作品最新\DEBUG\PLAYER.OBJ
D:\GE3A02\個人製作\作品\作品最新\DEBUG\PLAYSCENE.OBJ
D:\GE3A02\個人製作\作品\作品最新\DEBUG\NAVIGATIONAI.OBJ
D:\GE3A02\個人製作\作品\作品最新\DEBUG\GAMEOVERSCENE.OBJ
D:\GE3A02\個人製作\作品\作品最新\DEBUG\FLOOR.OBJ
D:\GE3A02\個人製作\作品\作品最新\DEBUG\WINMAIN.OBJ
D:\GE3A02\個人製作\作品\作品最新\DEBUG\SPRITE.OBJ
D:\GE3A02\個人製作\作品\作品最新\DEBUG\SPHERECOLLIDER.OBJ
D:\GE3A02\個人製作\作品\作品最新\DEBUG\SCENEMANAGER.OBJ
D:\GE3A02\個人製作\作品\作品最新\DEBUG\ROOTJOB.OBJ
D:\GE3A02\個人製作\作品\作品最新\DEBUG\QUAD.OBJ
D:\GE3A02\個人製作\作品\作品最新\DEBUG\MODEL.OBJ
^D:\GE3A02\個人製作\作品\作品最新\AI.CPP
D:\GE3A02\個人製作\作品\作品最新\DEBUG\VC141.PDB
^D:\GE3A02\個人製作\作品\作品最新\CHARACTERFOOT.CPP
D:\GE3A02\個人製作\作品\作品最新\DEBUG\VC141.PDB
^D:\GE3A02\個人製作\作品\作品最新\CHARACTERFOOTL.CPP
D:\GE3A02\個人製作\作品\作品最新\DEBUG\VC141.PDB
^D:\GE3A02\個人製作\作品\作品最新\CHARACTERFOOTR.CPP
D:\GE3A02\個人製作\作品\作品最新\DEBUG\VC141.PDB
^D:\GE3A02\個人製作\作品\作品最新\CLEARSCENE.CPP
D:\GE3A02\個人製作\作品\作品最新\DEBUG\VC141.PDB
^D:\GE3A02\個人製作\作品\作品最新\CRYSTALUI.CPP
D:\GE3A02\個人製作\作品\作品最新\DEBUG\VC141.PDB
^D:\GE3A02\個人製作\作品\作品最新\ENGINE\AUDIO.CPP
D:\GE3A02\個人製作\作品\作品最新\DEBUG\VC141.PDB
^D:\GE3A02\個人製作\作品\作品最新\ENGINE\BOXCOLLIDER.CPP
D:\GE3A02\個人製作\作品\作品最新\DEBUG\VC141.PDB
^D:\GE3A02\個人製作\作品\作品最新\ENGINE\COLLIDER.CPP
D:\GE3A02\個人製作\作品\作品最新\DEBUG\VC141.PDB
^D:\GE3A02\個人製作\作品\作品最新\ENGINE\DIRECT3D.CPP
D:\GE3A02\個人製作\作品\作品最新\DEBUG\VC141.PDB
^D:\GE3A02\個人製作\作品\作品最新\ENGINE\IGAMEOBJECT.CPP
D:\GE3A02\個人製作\作品\作品最新\DEBUG\VC141.PDB
^D:\GE3A02\個人製作\作品\作品最新\ENGINE\IMAGE.CPP
D:\GE3A02\個人製作\作品\作品最新\DEBUG\VC141.PDB
^D:\GE3A02\個人製作\作品\作品最新\ENGINE\MODEL.CPP
D:\GE3A02\個人製作\作品\作品最新\DEBUG\VC141.PDB
^D:\GE3A02\個人製作\作品\作品最新\ENGINE\QUAD.CPP
D:\GE3A02\個人製作\作品\作品最新\DEBUG\VC141.PDB
^D:\GE3A02\個人製作\作品\作品最新\ENGINE\ROOTJOB.CPP
D:\GE3A02\個人製作\作品\作品最新\DEBUG\VC141.PDB
^D:\GE3A02\個人製作\作品\作品最新\ENGINE\SCENEMANAGER.CPP
D:\GE3A02\個人製作\作品\作品最新\DEBUG\VC141.PDB
^D:\GE3A02\個人製作\作品\作品最新\ENGINE\SPHERECOLLIDER.CPP
D:\GE3A02\個人製作\作品\作品最新\DEBUG\VC141.PDB
^D:\GE3A02\個人製作\作品\作品最新\ENGINE\SPRITE.CPP
D:\GE3A02\個人製作\作品\作品最新\DEBUG\VC141.PDB
^D:\GE3A02\個人製作\作品\作品最新\FLOOR.CPP
D:\GE3A02\個人製作\作品\作品最新\DEBUG\VC141.PDB
^D:\GE3A02\個人製作\作品\作品最新\GAMEOVERSCENE.CPP
D:\GE3A02\個人製作\作品\作品最新\DEBUG\VC141.PDB
^D:\GE3A02\個人製作\作品\作品最新\TITLESCENE.CPP
D:\GE3A02\個人製作\作品\作品最新\DEBUG\VC141.PDB
^D:\GE3A02\個人製作\作品\作品最新\CRYSTAL.CPP|D:\GE3A02\個人製作\作品\作品最新\PLAYER.CPP
D:\GE3A02\個人製作\作品\作品最新\DEBUG\VC141.PDB
D:\GE3A02\個人製作\作品\作品最新\DEBUG\VC141.IDB
D:\GE3A02\個人製作\作品\作品最新\DEBUG\PLAYER.OBJ
D:\GE3A02\個人製作\作品\作品最新\DEBUG\CRYSTAL.OBJ
^D:\GE3A02\個人製作\作品\作品最新\ARROW.CPP|D:\GE3A02\個人製作\作品\作品最新\CAMERATARGET.CPP|D:\GE3A02\個人製作\作品\作品最新\CHARACTER.CPP|D:\GE3A02\個人製作\作品\作品最新\CHARACTERAI.CPP|D:\GE3A02\個人製作\作品\作品最新\CRYSTAL.CPP|D:\GE3A02\個人製作\作品\作品最新\ENEMY.CPP|D:\GE3A02\個人製作\作品\作品最新\ENGINE\CAMERA.CPP|D:\GE3A02\個人製作\作品\作品最新\ENGINE\FBX.CPP|D:\GE3A02\個人製作\作品\作品最新\ENGINE\WINMAIN.CPP|D:\GE3A02\個人製作\作品\作品最新\NAVIGATIONAI.CPP|D:\GE3A02\個人製作\作品\作品最新\PLAYER.CPP|D:\GE3A02\個人製作\作品\作品最新\PLAYSCENE.CPP|D:\GE3A02\個人製作\作品\作品最新\STAGE.CPP|D:\GE3A02\個人製作\作品\作品最新\WALL.CPP|D:\GE3A02\個人製作\作品\作品最新\WATER.CPP
D:\GE3A02\個人製作\作品\作品最新\DEBUG\VC141.PDB
D:\GE3A02\個人製作\作品\作品最新\DEBUG\VC141.IDB
^D:\GE3A02\個人製作\作品\作品最新\ARROW.CPP
D:\GE3A02\個人製作\作品\作品最新\DEBUG\VC141.PDB
^D:\GE3A02\個人製作\作品\作品最新\CAMERATARGET.CPP
D:\GE3A02\個人製作\作品\作品最新\DEBUG\VC141.PDB
^D:\GE3A02\個人製作\作品\作品最新\CHARACTER.CPP
D:\GE3A02\個人製作\作品\作品最新\DEBUG\VC141.PDB
^D:\GE3A02\個人製作\作品\作品最新\CHARACTERAI.CPP
D:\GE3A02\個人製作\作品\作品最新\DEBUG\VC141.PDB
^D:\GE3A02\個人製作\作品\作品最新\CRYSTAL.CPP
D:\GE3A02\個人製作\作品\作品最新\DEBUG\VC141.PDB
^D:\GE3A02\個人製作\作品\作品最新\ENEMY.CPP
D:\GE3A02\個人製作\作品\作品最新\DEBUG\VC141.PDB
^D:\GE3A02\個人製作\作品\作品最新\ENGINE\CAMERA.CPP
D:\GE3A02\個人製作\作品\作品最新\DEBUG\VC141.PDB
^D:\GE3A02\個人製作\作品\作品最新\ENGINE\FBX.CPP
D:\GE3A02\個人製作\作品\作品最新\DEBUG\VC141.PDB
^D:\GE3A02\個人製作\作品\作品最新\ENGINE\WINMAIN.CPP
D:\GE3A02\個人製作\作品\作品最新\DEBUG\VC141.PDB
^D:\GE3A02\個人製作\作品\作品最新\NAVIGATIONAI.CPP
D:\GE3A02\個人製作\作品\作品最新\DEBUG\VC141.PDB
^D:\GE3A02\個人製作\作品\作品最新\PLAYSCENE.CPP
D:\GE3A02\個人製作\作品\作品最新\DEBUG\VC141.PDB
^D:\GE3A02\個人製作\作品\作品最新\PLAYER.CPP
D:\GE3A02\個人製作\作品\作品最新\DEBUG\VC141.PDB
^D:\GE3A02\個人製作\作品\作品最新\STAGE.CPP
D:\GE3A02\個人製作\作品\作品最新\DEBUG\VC141.PDB
^D:\GE3A02\個人製作\作品\作品最新\WALL.CPP
D:\GE3A02\個人製作\作品\作品最新\DEBUG\VC141.PDB
^D:\GE3A02\個人製作\作品\作品最新\WATER.CPP
D:\GE3A02\個人製作\作品\作品最新\DEBUG\VC141.PDB
