^D:\GE3A02\個人製作\作品\作品最新\DEBUG\AI.OBJ|D:\GE3A02\個人製作\作品\作品最新\DEBUG\ARROW.OBJ|D:\GE3A02\個人製作\作品\作品最新\DEBUG\AUDIO.OBJ|D:\GE3A02\個人製作\作品\作品最新\DEBUG\BOXCOLLIDER.OBJ|D:\GE3A02\個人製作\作品\作品最新\DEBUG\CAMERA.OBJ|D:\GE3A02\個人製作\作品\作品最新\DEBUG\CAMERATARGET.OBJ|D:\GE3A02\個人製作\作品\作品最新\DEBUG\CHARACTER.OBJ|D:\GE3A02\個人製作\作品\作品最新\DEBUG\CHARACTERAI.OBJ|D:\GE3A02\個人製作\作品\作品最新\DEBUG\CHARACTERFOOT.OBJ|D:\GE3A02\個人製作\作品\作品最新\DEBUG\CHARACTERFOOTL.OBJ|D:\GE3A02\個人製作\作品\作品最新\DEBUG\CHARACTERFOOTR.OBJ|D:\GE3A02\個人製作\作品\作品最新\DEBUG\CLEARSCENE.OBJ|D:\GE3A02\個人製作\作品\作品最新\DEBUG\COLLIDER.OBJ|D:\GE3A02\個人製作\作品\作品最新\DEBUG\CRYSTAL.OBJ|D:\GE3A02\個人製作\作品\作品最新\DEBUG\CRYSTALUI.OBJ|D:\GE3A02\個人製作\作品\作品最新\DEBUG\CSVREADER.OBJ|D:\GE3A02\個人製作\作品\作品最新\DEBUG\DIRECT3D.OBJ|D:\GE3A02\個人製作\作品\作品最新\DEBUG\ENEMY.OBJ|D:\GE3A02\個人製作\作品\作品最新\DEBUG\FBX.OBJ|D:\GE3A02\個人製作\作品\作品最新\DEBUG\FLOOR.OBJ|D:\GE3A02\個人製作\作品\作品最新\DEBUG\GAMEOVERSCENE.OBJ|D:\GE3A02\個人製作\作品\作品最新\DEBUG\IGAMEOBJECT.OBJ|D:\GE3A02\個人製作\作品\作品最新\DEBUG\IMAGE.OBJ|D:\GE3A02\個人製作\作品\作品最新\DEBUG\INPUT.OBJ|D:\GE3A02\個人製作\作品\作品最新\DEBUG\MODEL.OBJ|D:\GE3A02\個人製作\作品\作品最新\DEBUG\NAVIGATIONAI.OBJ|D:\GE3A02\個人製作\作品\作品最新\DEBUG\PLAYER.OBJ|D:\GE3A02\個人製作\作品\作品最新\DEBUG\PLAYSCENE.OBJ|D:\GE3A02\個人製作\作品\作品最新\DEBUG\QUAD.OBJ|D:\GE3A02\個人製作\作品\作品最新\DEBUG\ROOTJOB.OBJ|D:\GE3A02\個人製作\作品\作品最新\DEBUG\SCENEMANAGER.OBJ|D:\GE3A02\個人製作\作品\作品最新\DEBUG\SPHERECOLLIDER.OBJ|D:\GE3A02\個人製作\作品\作品最新\DEBUG\SPRITE.OBJ|D:\GE3A02\個人製作\作品\作品最新\DEBUG\STAGE.OBJ|D:\GE3A02\個人製作\作品\作品最新\DEBUG\TITLESCENE.OBJ|D:\GE3A02\個人製作\作品\作品最新\DEBUG\WALL.OBJ|D:\GE3A02\個人製作\作品\作品最新\DEBUG\WATER.OBJ|D:\GE3A02\個人製作\作品\作品最新\DEBUG\WINMAIN.OBJ
D:\GE3A02\個人製作\作品\作品最新\DEBUG\3D_DOTEATGAME.EXE
D:\GE3A02\個人製作\作品\作品最新\DEBUG\3D_DOTEATGAME.ILK
D:\GE3A02\個人製作\作品\作品最新\DEBUG\3D_DOTEATGAME.PDB
