^D:\GE2A02\個人製作\資料\STG\DEBUG\AUDIO.OBJ|D:\GE2A02\個人製作\資料\STG\DEBUG\BOOTSCENE.OBJ|D:\GE2A02\個人製作\資料\STG\DEBUG\BOXCOLLIDER.OBJ|D:\GE2A02\個人製作\資料\STG\DEBUG\BULLET.OBJ|D:\GE2A02\個人製作\資料\STG\DEBUG\CAMERA.OBJ|D:\GE2A02\個人製作\資料\STG\DEBUG\CLEARSCENE.OBJ|D:\GE2A02\個人製作\資料\STG\DEBUG\COLLIDER.OBJ|D:\GE2A02\個人製作\資料\STG\DEBUG\DIRECT3D.OBJ|D:\GE2A02\個人製作\資料\STG\DEBUG\ENEMY.OBJ|D:\GE2A02\個人製作\資料\STG\DEBUG\ENEMYBULLET.OBJ|D:\GE2A02\個人製作\資料\STG\DEBUG\FBX.OBJ|D:\GE2A02\個人製作\資料\STG\DEBUG\FBXPARTS.OBJ|D:\GE2A02\個人製作\資料\STG\DEBUG\GAMEOBJECT.OBJ|D:\GE2A02\個人製作\資料\STG\DEBUG\GAMEOBJECTMANAGER.OBJ|D:\GE2A02\個人製作\資料\STG\DEBUG\GAMEOVERSCENE.OBJ|D:\GE2A02\個人製作\資料\STG\DEBUG\IMAGE.OBJ|D:\GE2A02\個人製作\資料\STG\DEBUG\INPUT.OBJ|D:\GE2A02\個人製作\資料\STG\DEBUG\MAIN.OBJ|D:\GE2A02\個人製作\資料\STG\DEBUG\MODEL.OBJ|D:\GE2A02\個人製作\資料\STG\DEBUG\PLAYER.OBJ|D:\GE2A02\個人製作\資料\STG\DEBUG\PLAYSCENE.OBJ|D:\GE2A02\個人製作\資料\STG\DEBUG\SCENEMANAGER.OBJ|D:\GE2A02\個人製作\資料\STG\DEBUG\SOUND.OBJ|D:\GE2A02\個人製作\資料\STG\DEBUG\SPHERECOLLIDER.OBJ|D:\GE2A02\個人製作\資料\STG\DEBUG\SPRITE.OBJ|D:\GE2A02\個人製作\資料\STG\DEBUG\TITLEPICT.OBJ|D:\GE2A02\個人製作\資料\STG\DEBUG\TITLESCENE.OBJ
C:\PROGRAM FILES (X86)\WINDOWS KITS\10\LIB\10.0.16299.0\UM\X86\KERNEL32.LIB
C:\PROGRAM FILES (X86)\WINDOWS KITS\10\LIB\10.0.16299.0\UM\X86\USER32.LIB
C:\PROGRAM FILES (X86)\WINDOWS KITS\10\LIB\10.0.16299.0\UM\X86\GDI32.LIB
C:\PROGRAM FILES (X86)\WINDOWS KITS\10\LIB\10.0.16299.0\UM\X86\WINSPOOL.LIB
C:\PROGRAM FILES (X86)\WINDOWS KITS\10\LIB\10.0.16299.0\UM\X86\COMDLG32.LIB
C:\PROGRAM FILES (X86)\WINDOWS KITS\10\LIB\10.0.16299.0\UM\X86\ADVAPI32.LIB
C:\PROGRAM FILES (X86)\WINDOWS KITS\10\LIB\10.0.16299.0\UM\X86\SHELL32.LIB
C:\PROGRAM FILES (X86)\WINDOWS KITS\10\LIB\10.0.16299.0\UM\X86\OLE32.LIB
C:\PROGRAM FILES (X86)\WINDOWS KITS\10\LIB\10.0.16299.0\UM\X86\OLEAUT32.LIB
C:\PROGRAM FILES (X86)\WINDOWS KITS\10\LIB\10.0.16299.0\UM\X86\UUID.LIB
C:\PROGRAM FILES (X86)\WINDOWS KITS\10\LIB\10.0.16299.0\UM\X86\ODBC32.LIB
C:\PROGRAM FILES (X86)\WINDOWS KITS\10\LIB\10.0.16299.0\UM\X86\ODBCCP32.LIB
D:\GE2A02\個人製作\資料\STG\DEBUG\BOOTSCENE.OBJ
D:\GE2A02\個人製作\資料\STG\DEBUG\BULLET.OBJ
D:\GE2A02\個人製作\資料\STG\DEBUG\CLEARSCENE.OBJ
D:\GE2A02\個人製作\資料\STG\DEBUG\ENEMY.OBJ
D:\GE2A02\個人製作\資料\STG\DEBUG\ENEMYBULLET.OBJ
D:\GE2A02\個人製作\資料\STG\DEBUG\CAMERA.OBJ
D:\GE2A02\個人製作\資料\STG\DEBUG\DIRECT3D.OBJ
D:\GE2A02\個人製作\資料\STG\DEBUG\SOUND.OBJ
D:\GE2A02\個人製作\資料\STG\DEBUG\FBX.OBJ
D:\GE2A02\個人製作\資料\STG\DEBUG\FBXPARTS.OBJ
D:\GE2A02\個人製作\資料\STG\DEBUG\INPUT.OBJ
D:\GE2A02\個人製作\資料\STG\DEBUG\SPRITE.OBJ
D:\GE2A02\個人製作\資料\STG\DEBUG\BOXCOLLIDER.OBJ
D:\GE2A02\個人製作\資料\STG\DEBUG\COLLIDER.OBJ
D:\GE2A02\個人製作\資料\STG\DEBUG\GAMEOBJECT.OBJ
D:\GE2A02\個人製作\資料\STG\DEBUG\GAMEOBJECTMANAGER.OBJ
D:\GE2A02\個人製作\資料\STG\DEBUG\SPHERECOLLIDER.OBJ
D:\GE2A02\個人製作\資料\STG\DEBUG\MAIN.OBJ
D:\GE2A02\個人製作\資料\STG\DEBUG\AUDIO.OBJ
D:\GE2A02\個人製作\資料\STG\DEBUG\IMAGE.OBJ
D:\GE2A02\個人製作\資料\STG\DEBUG\MODEL.OBJ
D:\GE2A02\個人製作\資料\STG\DEBUG\SCENEMANAGER.OBJ
D:\GE2A02\個人製作\資料\STG\DEBUG\GAMEOVERSCENE.OBJ
D:\GE2A02\個人製作\資料\STG\DEBUG\PLAYER.OBJ
D:\GE2A02\個人製作\資料\STG\DEBUG\PLAYSCENE.OBJ
D:\GE2A02\個人製作\資料\STG\DEBUG\TITLEPICT.OBJ
D:\GE2A02\個人製作\資料\STG\DEBUG\TITLESCENE.OBJ
C:\WINDOWS\SYSTEM32\TZRES.DLL
C:\WINDOWS\GLOBALIZATION\SORTING\SORTDEFAULT.NLS
C:\PROGRAM FILES (X86)\MICROSOFT VISUAL STUDIO\2017\COMMUNITY\VC\TOOLS\MSVC\14.16.27023\LIB\X86\LIBCPMTD.LIB
C:\PROGRAM FILES (X86)\MICROSOFT DIRECTX SDK (JUNE 2010)\LIB\X86\D3D9.LIB
C:\PROGRAM FILES (X86)\MICROSOFT DIRECTX SDK (JUNE 2010)\LIB\X86\D3DX9.LIB
C:\PROGRAM FILES (X86)\MICROSOFT DIRECTX SDK (JUNE 2010)\LIB\X86\DXGUID.LIB
C:\PROGRAM FILES (X86)\MICROSOFT DIRECTX SDK (JUNE 2010)\LIB\X86\DINPUT8.LIB
C:\PROGRAM FILES (X86)\MICROSOFT VISUAL STUDIO\2017\COMMUNITY\VC\TOOLS\MSVC\14.16.27023\LIB\X86\LIBCMTD.LIB
C:\PROGRAM FILES (X86)\MICROSOFT VISUAL STUDIO\2017\COMMUNITY\VC\TOOLS\MSVC\14.16.27023\LIB\X86\OLDNAMES.LIB
C:\PROGRAM FILES\AUTODESK\FBX\FBX SDK\2017.0.1\LIB\VS2015\X86\DEBUG\LIBFBXSDK-MT.LIB
C:\PROGRAM FILES (X86)\MICROSOFT DIRECTX SDK (JUNE 2010)\LIB\X86\DSOUND.LIB
C:\PROGRAM FILES (X86)\WINDOWS KITS\10\LIB\10.0.16299.0\UM\X86\WINMM.LIB
C:\PROGRAM FILES (X86)\MICROSOFT VISUAL STUDIO\2017\COMMUNITY\VC\TOOLS\MSVC\14.16.27023\LIB\X86\LIBVCRUNTIMED.LIB
C:\PROGRAM FILES (X86)\WINDOWS KITS\10\LIB\10.0.16299.0\UCRT\X86\LIBUCRTD.LIB
